,criterion,f1_criterion,max_depth,f1_max_depth,max_features,f1_max_features,min_samples_leaf,f1_min_samples_leaf,min_samples_split,f1_min_samples_split,n_estimators,f1_n_estimators
0,1,0.07807652253889885,37,0.07807652253889885,9,0.07807652253889885,0.07417473054776758,0.07807652253889885,0.00013444317894007677,0.07807652253889885,28,0.07807652253889885
1,1,0.07716145806552355,2,0.07716145806552355,3,0.07716145806552355,0.09051765893677167,0.07716145806552355,0.0008847157258587001,0.07716145806552355,79,0.07716145806552355
2,0,0.14395163905815722,20,0.14395163905815722,10,0.14395163905815722,0.000832029293873321,0.14395163905815722,0.0001709260221595354,0.14395163905815722,37,0.14395163905815722
3,1,0.14100313131933462,9,0.14100313131933462,13,0.14100313131933462,0.00044667474862317505,0.14100313131933462,0.015725553668169318,0.14100313131933462,95,0.14100313131933462
4,0,0.14419141597233853,34,0.14419141597233853,16,0.14419141597233853,0.0005200151630190524,0.14419141597233853,0.0016889878860675567,0.14419141597233853,72,0.14419141597233853
5,0,0.15539586031097474,18,0.15539586031097474,11,0.15539586031097474,0.0008359664398741681,0.15539586031097474,0.0006495971344293689,0.15539586031097474,50,0.15539586031097474
6,0,0.1414986928501838,20,0.1414986928501838,14,0.1414986928501838,0.002388513540831265,0.1414986928501838,0.0004676116998758152,0.1414986928501838,71,0.1414986928501838
7,1,0.10914257666414495,31,0.10914257666414495,5,0.10914257666414495,0.022159225516153295,0.10914257666414495,0.004288298218448488,0.10914257666414495,75,0.10914257666414495
8,1,0.1255608018204375,5,0.1255608018204375,3,0.1255608018204375,0.00019112280594907777,0.1255608018204375,0.0004317878751968096,0.1255608018204375,39,0.1255608018204375
9,1,0.10865165685483669,46,0.10865165685483669,16,0.10865165685483669,0.01974592136912635,0.10865165685483669,0.0011361889488153319,0.10865165685483669,68,0.10865165685483669
