,criterion,f1_criterion,max_depth,f1_max_depth,max_features,f1_max_features,min_samples_leaf,f1_min_samples_leaf,min_samples_split,f1_min_samples_split,n_estimators,f1_n_estimators
0,0,0.8490433118610502,26,0.8490433118610502,0,0.8490433118610502,0.002429207136633774,0.8490433118610502,0.0038179410333111013,0.8490433118610502,18,0.8490433118610502
1,1,0.8557479801758472,20,0.8557479801758472,1,0.8557479801758472,6.113317414971814e-05,0.8557479801758472,0.0001387994875495287,0.8557479801758472,68,0.8557479801758472
2,1,0.8648657561189876,28,0.8648657561189876,14,0.8648657561189876,0.00011684942661571779,0.8648657561189876,0.0008022768630501304,0.8648657561189876,73,0.8648657561189876
3,0,0.8544996954987912,42,0.8544996954987912,11,0.8544996954987912,0.0007307235557482824,0.8544996954987912,0.0027289219194529175,0.8544996954987912,4,0.8544996954987912
4,1,0.6255956623454187,26,0.6255956623454187,11,0.6255956623454187,0.07552820791426144,0.6255956623454187,0.010771291655828177,0.6255956623454187,62,0.6255956623454187
5,1,0.2698396796679148,0,0.2698396796679148,11,0.2698396796679148,8.026191009167198e-05,0.2698396796679148,0.011235197776567027,0.2698396796679148,46,0.2698396796679148
6,0,0.7980268475771964,31,0.7980268475771964,10,0.7980268475771964,0.032560081499106865,0.7980268475771964,0.0010127238278191363,0.7980268475771964,38,0.7980268475771964
7,1,0.8566811910499966,23,0.8566811910499966,15,0.8566811910499966,0.0018232788624987558,0.8566811910499966,0.003338730808345443,0.8566811910499966,27,0.8566811910499966
8,1,0.8629890830812255,22,0.8629890830812255,12,0.8629890830812255,0.0002900540076895152,0.8629890830812255,0.017450481518036617,0.8629890830812255,33,0.8629890830812255
9,0,0.8546697716846945,30,0.8546697716846945,11,0.8546697716846945,2.1967382957417654e-05,0.8546697716846945,0.0036941588570671684,0.8546697716846945,55,0.8546697716846945
