,activation,f1_activation,alpha,f1_alpha,hidden_layer_sizes,f1_hidden_layer_sizes,learning_rate,f1_learning_rate,learning_rate_init,f1_learning_rate_init
0,1,0.7920141504004781,0.01427700011077325,0.7920141504004781,5,0.7920141504004781,1,0.7920141504004781,0.06535086128851923,0.7920141504004781
1,1,0.7690469990963594,0.015896410798563076,0.7690469990963594,8,0.7690469990963594,0,0.7690469990963594,0.02971284421309406,0.7690469990963594
2,2,0.7944894611002231,0.034702190038489164,0.7944894611002231,4,0.7944894611002231,0,0.7944894611002231,0.01710826879865576,0.7944894611002231
3,0,0.7798189658115131,0.011528631766874343,0.7798189658115131,6,0.7798189658115131,0,0.7798189658115131,0.019662836381070515,0.7798189658115131
4,1,0.7877091053183726,0.012901991514733011,0.7877091053183726,5,0.7877091053183726,1,0.7877091053183726,0.09696733544730442,0.7877091053183726
5,0,0.7627321737556721,0.04527655188838078,0.7627321737556721,1,0.7627321737556721,0,0.7627321737556721,0.016851244654741658,0.7627321737556721
6,0,0.77352027031799,0.03905151020037712,0.77352027031799,2,0.77352027031799,1,0.77352027031799,0.07691692294472466,0.77352027031799
7,0,0.7732501465655622,0.017280271558957793,0.7732501465655622,2,0.7732501465655622,1,0.7732501465655622,0.023927174482886473,0.7732501465655622
8,2,0.789000820809415,0.0398664842557865,0.789000820809415,6,0.789000820809415,1,0.789000820809415,0.039343685692211215,0.789000820809415
9,2,0.7872199293363087,0.04789398092658139,0.7872199293363087,4,0.7872199293363087,0,0.7872199293363087,0.054142483251608434,0.7872199293363087
