,criterion,f1_criterion,max_depth,f1_max_depth,max_features,f1_max_features,min_samples_leaf,f1_min_samples_leaf,min_samples_split,f1_min_samples_split,n_estimators,f1_n_estimators
0,1,0.8212087536942931,7,0.8212087536942931,12,0.8212087536942931,0.003721328743533445,0.8212087536942931,0.00031761881120136447,0.8212087536942931,61,0.8212087536942931
1,1,0.8042406398724251,6,0.8042406398724251,17,0.8042406398724251,0.0012762305357530718,0.8042406398724251,0.0008373453711258243,0.8042406398724251,44,0.8042406398724251
2,1,0.8224158032956004,19,0.8224158032956004,6,0.8224158032956004,1.436474524490637e-05,0.8224158032956004,0.0016587384265278442,0.8224158032956004,92,0.8224158032956004
3,1,0.8229630154503347,4,0.8229630154503347,11,0.8229630154503347,0.04447488202024707,0.8229630154503347,0.0005722834740358187,0.8229630154503347,45,0.8229630154503347
4,1,0.8176224480021894,37,0.8176224480021894,8,0.8176224480021894,0.00038902157076629466,0.8176224480021894,0.0025605474747727053,0.8176224480021894,43,0.8176224480021894
5,1,0.8099165447646121,31,0.8099165447646121,15,0.8099165447646121,0.005374750241863757,0.8099165447646121,0.0014236657310080449,0.8099165447646121,75,0.8099165447646121
6,1,0.811053749683658,33,0.811053749683658,17,0.811053749683658,0.041197961316289555,0.811053749683658,0.00037110541887846684,0.811053749683658,97,0.811053749683658
7,0,0.8079682797170283,40,0.8079682797170283,10,0.8079682797170283,0.03580528168041647,0.8079682797170283,0.0022139586841189406,0.8079682797170283,7,0.8079682797170283
8,1,0.8167120774224849,25,0.8167120774224849,17,0.8167120774224849,0.07713047739624987,0.8167120774224849,0.0002583067944815479,0.8167120774224849,39,0.8167120774224849
9,1,0.807355308548412,32,0.807355308548412,18,0.807355308548412,0.009185695973759997,0.807355308548412,0.0005441140856452423,0.807355308548412,66,0.807355308548412
