,C,f1_C,gamma,f1_gamma,kernel,f1_kernel
0,0.17437796020841725,0.7881078656563639,8.235759409661132,0.7881078656563639,1,0.7881078656563639
1,80.03193443423498,0.783465461103392,0.1523997549209985,0.783465461103392,1,0.783465461103392
2,3.348021395349121,0.7972378018859874,1.5701765738680342,0.7972378018859874,0,0.7972378018859874
3,0.8997867778312381,0.7881078656563639,7.967015361828112,0.7881078656563639,1,0.7881078656563639
4,0.020324760696271642,0.8003565062388592,0.013734178318855067,0.8003565062388592,1,0.8003565062388592
5,0.01567639044401938,0.8003565062388592,0.002760189735405516,0.8003565062388592,0,0.8003565062388592
6,6.125085257798976,0.8058133777489658,3.7694495647489776,0.8058133777489658,0,0.8058133777489658
7,701.1972310878521,0.7881078656563639,1.7573730656114597,0.7881078656563639,1,0.7881078656563639
8,0.04358179086609387,0.8003565062388592,12.853843370445848,0.8003565062388592,0,0.8003565062388592
9,0.05416789310783849,0.8003565062388592,0.07667503440818904,0.8003565062388592,0,0.8003565062388592
