"ACA","ATA","ATT","CAC","CCC","CCT","CTT","GTG","TAT","TCC","TCT","TGT","TTA","TTC","TTT","10,2_dwl","10,3_dwl","6,5_dwl","7,5_dwl","7,6_dwl","8,3_dwl","8,4_dwl","8,6_dwl","8,7_dwl","9,4_dwl","9,5_dwl","9,7_dwl","10,2_dint","10,3_dint","6,5_dint","7,5_dint","7,6_dint","8,3_dint","8,4_dint","8,6_dint","8,7_dint","9,4_dint","9,5_dint","9,7_dint","HE4","CA125","YKL40"
0.35,0,0,0.35,0,0,0,0,0,0,0,0,0,0,0,0.500132803977999,0.501267866603331,0.50011168263544,0.497715534302165,0.496528160342251,0.49877909809901,0.500698612449088,0.502481327241497,0.510300514465331,0.501194926485584,0.500397264719663,0.500286435698581,0.88057717613212,0.831971631997607,0.958640780188087,0.842529239911373,0.799714734208953,0.89513134396934,0.846384101622713,0.849155423427787,0.8535833249216,0.8404396721426,0.86429971331034,0.85185192671904,0,0,10
0.35,0,0,0.35,0,0,0,0,0,0,0,0,0,0,0,0.500491975690579,0.501117777369996,0.496961772295157,0.499412803177,0.499109662327913,0.500164254300202,0.499109647579002,0.501375793137913,0.510947511634913,0.500115026195749,0.501752196225084,0.501014923826,0.825382053814687,0.789071956548493,0.79742726900422,0.796206976828793,0.774852744319387,0.81278582965888,0.777814354524333,0.797883618247833,0.7984596840501,0.794555351823093,0.795059569470167,0.794374280956133,0,0,3
0.35,0,0,0.35,0,0,0,0,0,0,0,0,0,0,0,0.501248295475159,0.501461797522666,0.500022408742691,0.497428363991168,0.499449594524162,0.499543749976814,0.500923923227668,0.501124372655914,0.501887202384825,0.500590675552417,0.501154322927664,0.500377482505331,0.770013564425447,0.74463914922924,0.818037505321053,0.733202132947767,0.734410113667347,0.766655387542553,0.7320251118266,0.75495256672276,0.75573772165956,0.751740971581133,0.74672051587314,0.752856321221153,0,0,7
0.35,0,0,0.35,0,0,0,0,0,0,0,0,0,0,0,0.501195619702082,0.503769648362169,0.491485981027338,0.499183448103918,0.499204255848838,0.499809762575751,0.499979052788001,0.498816342810665,0.505139213776579,0.500418530293496,0.502736226442084,0.498932895899748,0.87714729436692,0.829281272270167,0.831246908750133,0.840117334754707,0.798054009202153,0.8444336106846,0.821227339167413,0.87085116130686,0.8735741247192,0.856266136217087,0.864035934017727,0.842582317420033,0,10,0
0.35,0,0,0.35,0,0,0,0,0,0,0,0,0,0,0,0.501245029596083,0.502509324811996,0.493818792416957,0.499839528990248,0.499168046244455,0.500473663373049,0.499004203577249,0.500507687751787,0.504911683583788,0.499488677693211,0.502162798447415,0.500290102631419,0.819174738683967,0.75564417153362,0.80007292183012,0.780946880867473,0.761757042060287,0.7979895910548,0.785511357373807,0.785779463217433,0.784858790357127,0.784949452707907,0.78435238140794,0.74843222570034,0,3,0
0.35,0,0,0.35,0,0,0,0,0,0,0,0,0,0,0,0.500790793813496,0.502707218520669,0.494333035644684,0.499522713401916,0.499865135033917,0.500002541989582,0.500056572567331,0.500087381324079,0.498145418704826,0.500359890594251,0.50246661727308,0.499227836950001,0.760952040963847,0.737961410635887,0.764367165693187,0.739228420612993,0.730217492906427,0.7489707501523,0.730285965471333,0.74144040465592,0.74009348260072,0.737921941542153,0.743307184106193,0.72593675871672,0,7,0
0.35,0,0,0.35,0,0,0,0,0,0,0,0,0,0,0,0.484741763329077,0.607588341374833,0.598915234519896,0.397343064470755,0.593137454568585,0.453398173146661,0.51692946378775,0.405423696982666,0.385514047089163,0.434014312179579,0.622445852318168,0.506621307521664,0.299401197022482,0.205384388476725,0.330023133407267,0.157413213876427,0.150265201441142,0.186897910510785,0.171330570303177,0.148974149040105,0.208277333770983,0.148370524485387,0.170196031767999,0.232347911079203,10,0,0
0.35,0,0,0.35,0,0,0,0,0,0,0,0,0,0,0,0.486087904358584,0.639601284264586,0.600799151921131,0.41231999145175,0.623728190807253,0.453397365057276,0.5277794970245,0.405658873298916,0.440513233433245,0.439534948547748,0.661381175542334,0.517691253067835,0.368329555448576,0.244093905343046,0.362620498615767,0.201622719973494,0.180406053975055,0.236709728510494,0.195775697505955,0.186492077388468,0.282914121607595,0.178880926472668,0.226896803637344,0.299281127170547,10,10,10
0.35,0,0,0.35,0,0,0,0,0,0,0,0,0,0,0,0.482612772046247,0.542754037843918,0.562149337375348,0.544308221298673,0.484011751785414,0.487814003204002,0.497514021262083,0.457094973644416,0.453425207311079,0.462390576922002,0.528570650558578,0.493347888897335,0.454904809702991,0.295555385544679,0.207832101643413,0.289568342021767,0.23517873385153,0.374558642810585,0.256600584108474,0.208747964073922,0.278027169040325,0.249853111033372,0.239955166931853,0.295197331090841,3,0,0
0.35,0,0,0.35,0,0,0,0,0,0,0,0,0,0,0,0.483713492909749,0.551785149610169,0.567403082313956,0.541559003011252,0.484438070050078,0.486606981368141,0.503089458308,0.453714269366833,0.448122197192828,0.459828403311167,0.538195240368833,0.497527521276669,0.433721907780797,0.27025464946791,0.228594514931441,0.295691042867518,0.225395930532655,0.336828804920543,0.236128824404577,0.201199289091218,0.27040778554571,0.228557557966526,0.225494494460304,0.280259022567715,3,3,3
0.35,0,0,0.35,0,0,0,0,0,0,0,0,0,0,0,0.485831327970828,0.542840952620668,0.566994514968758,0.541429169494836,0.479636835680583,0.486456998933431,0.496734865856502,0.449971020475084,0.438714122872665,0.459751014980918,0.527469901437166,0.492078473820004,0.456148579295545,0.283329147040196,0.221820451474869,0.275571108916481,0.22637524053329,0.310826747042806,0.238903270872632,0.218520975841071,0.282013904607272,0.250262852473393,0.231847311521278,0.286951594955355,3,3,7
0.35,0,0,0.35,0,0,0,0,0,0,0,0,0,0,0,0.482435293441915,0.57454701933508,0.576927348914174,0.527140159112833,0.495127059368417,0.478033322280248,0.498528385513504,0.441937760186841,0.453192275315911,0.447084248648082,0.571566831949002,0.508363645112502,0.421424201851043,0.250077955357254,0.251040222853631,0.227935939910119,0.178046970045849,0.26552142850245,0.195928706229387,0.180839808562519,0.257188189581308,0.200414998015029,0.210637236554869,0.290066543788355,3,7,3
0.35,0,0,0.35,0,0,0,0,0,0,0,0,0,0,0,0.488463811204747,0.544851235644001,0.54968004961309,0.538683748122423,0.48521641645342,0.48632789424515,0.503939574673416,0.455162117490335,0.447668820653746,0.465542374814413,0.529416373130994,0.492355456424082,0.487054724390964,0.310810700083433,0.207596957870345,0.337206746452242,0.276539574362315,0.371483526017903,0.271048228029309,0.240741880576976,0.303458895750228,0.276834928408873,0.260230702953143,0.300484781552916,3,7,7
0.35,0,0,0.35,0,0,0,0,0,0,0,0,0,0,0,0.482728146052,0.596096518426088,0.590614096362049,0.480928388931915,0.535556694607419,0.463712976961506,0.5040816874835,0.422070333379833,0.439602840084996,0.438745568400333,0.609360302748752,0.511428353177166,0.376393857522291,0.243932087852819,0.305025273266693,0.174655013313013,0.155468935466929,0.206996826911689,0.180534598503027,0.173571881516715,0.252811334776339,0.183996456354239,0.201067216983565,0.26323096181115,7,0,0
0.35,0,0,0.35,0,0,0,0,0,0,0,0,0,0,0,0.482000072895249,0.6007397375305,0.590474081912924,0.457247427362086,0.547207337098252,0.461347436753775,0.508128058192585,0.420539130695999,0.433446147283502,0.440181157953339,0.61903564851533,0.512786379623748,0.367939177904575,0.218478420015417,0.300157498710139,0.18548280906017,0.158319962379375,0.206547727463969,0.173097396499463,0.167121833233126,0.249752720516137,0.171708910428049,0.194704749168161,0.266210065406327,7,3,3
0.35,0,0,0.35,0,0,0,0,0,0,0,0,0,0,0,0.486673603224574,0.60471141000225,0.591601508836973,0.45919625964375,0.550810558918329,0.461046509186892,0.506646723098839,0.420348862693584,0.436761009407081,0.442244732933921,0.612642753439496,0.512432569031,0.339787189617257,0.244531337243605,0.288242430442478,0.181076354082737,0.161745171148098,0.210748404928299,0.170503384049813,0.163771264540433,0.236910758320233,0.166197736522599,0.183696325932215,0.24824897155979,7,3,7
0.35,0,0,0.35,0,0,0,0,0,0,0,0,0,0,0,0.482673029635663,0.625609223507166,0.594648592213323,0.433091531177837,0.585615539916665,0.460128322629839,0.524097561240922,0.416703568229832,0.440233198358999,0.439499306832084,0.64455219822716,0.515893805077502,0.361082108822933,0.213246999670801,0.294313640688515,0.176191070556095,0.149282608427803,0.222545682811789,0.153544416966829,0.174369482741262,0.279519207833717,0.17329366580788,0.212444801955425,0.272577455358725,7,7,3
0.35,0,0,0.35,0,0,0,0,0,0,0,0,0,0,0,0.483884314886666,0.613204616362918,0.593275452178102,0.439027909771414,0.56980428364692,0.458972367640732,0.519701593510922,0.428686735460082,0.438118253291162,0.441722523669921,0.63160422841317,0.514906334617001,0.357332454681345,0.213955535038254,0.325504521642906,0.179021821297455,0.156434095066451,0.243760542024887,0.159501750334687,0.173823296274635,0.262432524722924,0.17087820460687,0.209145637839523,0.263574945745913,7,7,7
0,0.25,0,0,0,0,0,0,0.25,0,0,0,0,0,0,0.50184232809633,0.497371245248758,0.502775484291485,0.499266350697582,0.50516225383833,0.5003589165714,0.501844219582586,0.50019377129492,0.517790938156838,0.50298845544292,0.497341836091834,0.504430503052834,0.725664659040633,0.74810385097904,0.71794553238674,0.787151133795027,0.79286672002702,0.747659311978307,0.74987381538034,0.80052864201652,0.78454631442418,0.769987292073767,0.797508719826327,0.725377850576353,0,0,10
0,0.25,0,0,0,0,0,0,0.25,0,0,0,0,0,0,0.49947336593458,0.490583816330417,0.498030186886942,0.496978457433414,0.499696293616665,0.499311016871121,0.495200549527414,0.497333952658835,0.512313634433502,0.500669404972416,0.491945820689915,0.501355715192085,0.751304060010627,0.817022026224933,0.586849658128368,0.763159459515453,0.7611567068557,0.728521129997847,0.748090492027473,0.77933723107738,0.76216946975446,0.750921491811887,0.772992976729087,0.747990139203887,0,0,3
0,0.25,0,0,0,0,0,0,0.25,0,0,0,0,0,0,0.498831577495991,0.494584798142921,0.50016668470895,0.498569089077586,0.494695496206583,0.499109711610305,0.492932412327832,0.497468982580165,0.494529696538916,0.497507193799248,0.498041992002078,0.497795336739335,0.628660165920159,0.76311691585642,0.74564554893852,0.664930204392048,0.649528120189326,0.682597030055633,0.631549474942727,0.612818044558059,0.612740313363151,0.61505252790338,0.619237430697951,0.645683017170563,0,0,7
0,0.25,0,0,0,0,0,0,0.25,0,0,0,0,0,0,0.498301449465248,0.49128501162175,0.499596819632527,0.495843871133087,0.500401717393663,0.498940394234961,0.492486771637999,0.497341641405916,0.516400630777753,0.499478701052243,0.488409573280751,0.500608073497085,0.844427143580893,0.79182322706694,1.05283224076975,0.89156793168576,0.86581454294254,0.88254259005304,0.89372612054314,0.896855216603107,0.874255122185447,0.870391389746033,0.887800275762273,0.837976225049087,0,10,0
0,0.25,0,0,0,0,0,0,0.25,0,0,0,0,0,0,0.499933018569493,0.490583816330417,0.500007047104825,0.496370300251414,0.501473986768497,0.498951591487526,0.494435932474164,0.497054391808086,0.517290510670415,0.500699551744998,0.491217818949082,0.502218649614417,0.73385660648996,0.817022026224933,0.994425718764667,0.851782551107593,0.848670482529287,0.789249786184287,0.861696034296393,0.81209277393926,0.792840110785333,0.774277683768813,0.823017506556573,0.7319773735994,0,3,0
0,0.25,0,0,0,0,0,0,0.25,0,0,0,0,0,0,0.499619824470079,0.494584798142921,0.500182846597059,0.497658995192995,0.503777329380085,0.497972915037607,0.493559449358668,0.499132252286745,0.519602350691503,0.498849096956911,0.493515904399334,0.502928652363505,0.799187605800807,0.76311691585642,0.833494446259133,0.812776146131413,0.79650606649116,0.814526071436493,0.85119102885612,0.855326014964473,0.834791780337427,0.818661437657173,0.845009216409993,0.79280317466742,0,7,0
0,0.25,0,0,0,0,0,0,0.25,0,0,0,0,0,0,0.483459335085661,0.458179855312414,0.481301500969425,0.482457684414663,0.483544555618749,0.485667776070278,0.465061666907667,0.477022285732335,0.450047221743336,0.489884124294247,0.464259086975994,0.469284511978753,0.687171525882187,0.72004569696368,0.898924213334767,0.795975189040373,0.747828493041753,0.787082521870807,0.806644336364507,0.683277474519173,0.588079189311479,0.624534333920097,0.695523296868707,0.578838643201356,10,0,0
0,0.25,0,0,0,0,0,0,0.25,0,0,0,0,0,0,0.499053124702493,0.493739326281838,0.501681790293239,0.498053743554084,0.490929703631753,0.501041086190025,0.492265320620498,0.495551537785502,0.471003110149502,0.501075922350577,0.495567347252,0.493062211746917,0.46443975113909,0.431869289859489,0.55308569549693,0.500389897673305,0.49253684584379,0.517977029338041,0.497494552218125,0.472482795888238,0.433172099027125,0.472385397478777,0.473550153229929,0.434604754325525,10,10,10
0,0.25,0,0,0,0,0,0,0.25,0,0,0,0,0,0,0.497224393249405,0.484165033732,0.493575921011282,0.494341030303161,0.49099628894208,0.497486072616175,0.476494735954998,0.494929988371166,0.487099906549338,0.49874520509108,0.487608853284161,0.494249930246502,0.718556330078527,0.760463920233427,0.86807186664974,0.800892165184933,0.753647340959393,0.7981029588275,0.8868913705194,0.73133324339712,0.680944617928047,0.722499286890173,0.744164107770653,0.640219783991043,3,0,0
0,0.25,0,0,0,0,0,0,0.25,0,0,0,0,0,0,0.501664028882828,0.496127628619502,0.503041905861676,0.497841087816835,0.500193968033329,0.500587230135619,0.495908251598581,0.499415923911999,0.506239290892921,0.503163636832579,0.49458991439775,0.501482122074003,0.641758872126364,0.664016475189168,0.67272783937294,0.728526477274687,0.72949240579698,0.7357285461501,0.662874609917755,0.68562552542184,0.654477385103639,0.665948573584799,0.7244926396698,0.615006547919571,3,3,3
0,0.25,0,0,0,0,0,0,0.25,0,0,0,0,0,0,0.500788777546995,0.496036557095169,0.501774958986542,0.497838014757161,0.497065545033581,0.500907479524676,0.496615051737081,0.4989061751245,0.505907303761921,0.502339186347496,0.49401027987858,0.500958755482083,0.736061262828307,0.577021437374871,0.609786520915287,0.69642092936328,0.6884874193468,0.795863421989673,0.648292322292964,0.768677808086793,0.735864077144453,0.75137515708286,0.771985983582133,0.707473583762313,3,3,7
0,0.25,0,0,0,0,0,0,0.25,0,0,0,0,0,0,0.497416625491661,0.491682432235666,0.501175235804433,0.496987502449917,0.490605329363501,0.499895233329784,0.491312447114916,0.495207091176582,0.484590741132331,0.49918319908133,0.491668353169331,0.494342220983333,0.659112198587264,0.661854934563434,0.690135048253453,0.760597507093187,0.73124645977564,0.728133098679213,0.74872895637942,0.669096468784133,0.632389543485635,0.666429741366641,0.680997036494907,0.600647667181003,3,7,3
0,0.25,0,0,0,0,0,0,0.25,0,0,0,0,0,0,0.499679163666411,0.49218963182467,0.502126940579285,0.496445849069335,0.495140652755919,0.499621012812233,0.495572294859085,0.496776068821669,0.498739713108171,0.500761104756003,0.491930283190084,0.498156203578668,0.673340236627327,0.622101635406678,0.605927979316385,0.74548600123798,0.734456009759787,0.681649920762293,0.684678689074587,0.681301270310913,0.64612002751383,0.666364139047145,0.692180318407813,0.656846772696763,3,7,7
0,0.25,0,0,0,0,0,0,0.25,0,0,0,0,0,0,0.497628862563494,0.487764339465332,0.498703667423385,0.496091928390501,0.499426331626501,0.497167794751101,0.494881757566418,0.493742412237583,0.496702293312421,0.499878448727662,0.485551200591078,0.49626279315375,0.762737604522267,0.719663635860433,0.822984388712473,0.771744757755207,0.746735589186367,0.780843794429693,0.764609675829313,0.766237030702547,0.69154239187826,0.72534213817388,0.74574474978222,0.689560204296347,7,0,0
0,0.25,0,0,0,0,0,0,0.25,0,0,0,0,0,0,0.499138822420497,0.486332591371996,0.498588884166244,0.497051039997331,0.499592021691416,0.499063435920169,0.488008450560164,0.49555125536433,0.49297829571492,0.501046450643662,0.489008783879581,0.495311629355336,0.744363153769573,0.727655527529733,0.837083695851033,0.753994575077627,0.742121587696907,0.72621432555126,0.814530759445973,0.74902534238272,0.664638953410036,0.714510690591833,0.728718770155653,0.667798340710027,7,3,3
0,0.25,0,0,0,0,0,0,0.25,0,0,0,0,0,0,0.500677605654243,0.493710181755921,0.50148709456854,0.498246327814746,0.49669358004258,0.500139468961501,0.492589658604834,0.49732344566425,0.491602455371668,0.501403011228996,0.492988709925328,0.498294959975919,0.70690598471612,0.604992347190477,0.6669002796831,0.685356080189733,0.67487698800692,0.672383147586647,0.578171346274867,0.71358288304492,0.66118278006745,0.701012508722273,0.683608654854167,0.645419368107326,7,3,7
0,0.25,0,0,0,0,0,0,0.25,0,0,0,0,0,0,0.49678369089425,0.486271520475918,0.501252289709927,0.495181625507001,0.492098344717169,0.497381828341776,0.487939473041496,0.492436369064916,0.479735601321755,0.498754434907499,0.48548095706891,0.491617315994,0.76970262117822,0.648563679344305,0.555398223513836,0.763635531819247,0.726917812694053,0.8417972968365,0.576675027031332,0.770034421878333,0.68397609453962,0.745464135779647,0.7711216934902,0.670324473144307,7,7,3
0,0.25,0,0,0,0,0,0,0.25,0,0,0,0,0,0,0.49970672107641,0.492144209344087,0.500514931504355,0.497999102338912,0.494883877252335,0.499860919093882,0.490524813245912,0.495092956318751,0.482805918149586,0.500799073592492,0.493011525328575,0.494993287679506,0.524113935019345,0.540909820747374,0.518965855154191,0.607068790465247,0.595264869619437,0.575633830750169,0.572109633602813,0.528875545809925,0.483249098972385,0.518626706275329,0.549516323911972,0.472091163573741,7,7,7
0,0.35,0,0,0,0,0,0,0.35,0,0,0,0,0,0,0.498036238505421,0.501571989579418,0.500483203729252,0.499540536516326,0.488519074202003,0.500373987477815,0.493496157103834,0.498156450932913,0.484474192219085,0.496053489641326,0.501941188769166,0.493758525259841,0.575981209219814,0.550094277109893,0.546584964635931,0.609390049570913,0.589744426620513,0.58206644693414,0.593412061842883,0.550395632952465,0.549478678890837,0.589885029462423,0.553861544750213,0.569675298887029,0,0,10
0,0.35,0,0,0,0,0,0,0.35,0,0,0,0,0,0,0.499107099738507,0.501127353882998,0.501112898644962,0.499000578200997,0.489846900986998,0.499999646047274,0.493230137468998,0.498880894344995,0.489192436216416,0.496467461501993,0.500359372816496,0.495545249802672,0.618857452523659,0.629552633030269,0.606274771341462,0.67794163210048,0.655534139551435,0.631135512382557,0.685854462662987,0.608813607470504,0.590852827612923,0.643153737959426,0.615061112944763,0.589881792230691,0,0,3
0,0.35,0,0,0,0,0,0,0.35,0,0,0,0,0,0,0.49886924565867,0.502990146486417,0.501280133229005,0.499995540982661,0.487446750341167,0.501059824105488,0.493757269948742,0.498938094997004,0.482772855822577,0.49594534741816,0.504222927219661,0.495176596261922,0.499305197781022,0.508805955989947,0.515530995934959,0.549584547375255,0.528072545139612,0.504844491696019,0.538109137411371,0.479003574123743,0.47034943504616,0.522293867579257,0.478336691058771,0.479088707895749,0,0,7
0,0.35,0,0,0,0,0,0,0.35,0,0,0,0,0,0,0.496935920127254,0.498358097041,0.502141637842345,0.498292097440583,0.487273058477166,0.499429342548382,0.49233440402158,0.497429620338664,0.482839381108749,0.494976064642583,0.498500347903502,0.491740676077006,0.667840655939353,0.640001855345487,0.564272421239837,0.702345350234767,0.675252243957787,0.68493352248094,0.621608619744893,0.640877461942091,0.624306415474917,0.689487414901607,0.646220954593047,0.632421600888625,0,10,0
0,0.35,0,0,0,0,0,0,0.35,0,0,0,0,0,0,0.500868293086086,0.501801844211252,0.499487285316934,0.499593442877494,0.497424743319084,0.500838267206251,0.497443566404331,0.501373954119333,0.502659539908581,0.500096099859911,0.500211021770667,0.500380239453335,0.777094197790533,0.794682755747033,0.848847179878047,0.840793102214033,0.741251778454887,0.591399379289426,0.802601418801987,0.796598024575467,0.788196778945753,0.76711112840344,0.73065165605196,0.787335049410353,0,3,0
0,0.35,0,0,0,0,0,0,0.35,0,0,0,0,0,0,0.499127637199587,0.500716186833421,0.499427194552919,0.499526618465666,0.493536098829253,0.500543246914984,0.495910185197494,0.499341415294748,0.491432122057751,0.497529194447412,0.500744239406913,0.49678717876709,0.581019145994237,0.586782974022419,0.564427718495935,0.590870640275707,0.580459036313363,0.576141045638931,0.571851401685217,0.568885425484197,0.564007109700303,0.593008008135005,0.588327549005211,0.564959875058946,0,7,0
0,0.35,0,0,0,0,0,0,0.35,0,0,0,0,0,0,0.498227708611586,0.49441532201725,0.500617079774077,0.498994597599244,0.495020649783413,0.500114887369472,0.495943138169912,0.496740426581999,0.483901045107666,0.497971992341832,0.497364064996663,0.4926793714935,0.637116852665976,0.654310257110319,0.646668889735773,0.689832367164547,0.67040010445236,0.668841619281553,0.66750454420394,0.6241763742648,0.569071585013974,0.653346274043699,0.622786891505966,0.59094337408256,10,0,0
0,0.35,0,0,0,0,0,0,0.35,0,0,0,0,0,0,0.498904562394836,0.493785682591755,0.497645384894267,0.498297139172661,0.498633291618916,0.499227120139221,0.497238475257996,0.499062778851999,0.500013084381328,0.497282506844329,0.495076803098664,0.496425256130505,0.882803001493447,0.88193865144076,0.859451537093493,0.907647437378427,0.84981270155164,0.892666648585047,0.768170725711167,0.911197787576887,0.837729367444747,0.880352244164647,0.852319068167927,0.8501117654709,3,0,0
0,0.35,0,0,0,0,0,0,0.35,0,0,0,0,0,0,0.498944266941925,0.501583108000835,0.502769125687769,0.498980839447324,0.488420057867415,0.500056369665742,0.493151983956579,0.498371647922079,0.487055507773414,0.496503224268577,0.500026698862911,0.494999553013173,0.639964493559081,0.594326414872536,0.54818375254065,0.6809566995304,0.649839338615043,0.657055551939365,0.649713832795136,0.617599583673168,0.598789036434735,0.650566725534236,0.623260836037039,0.613662383778593,3,3,3
0,0.35,0,0,0,0,0,0,0.35,0,0,0,0,0,0,0.498693060651419,0.500407642713753,0.501554713296986,0.499007434726911,0.489001310605414,0.499926787770556,0.491906116415242,0.498680357142746,0.487675955059751,0.495797755218666,0.500124344446408,0.493979747392501,0.637202664243088,0.597532902855121,0.584246697154471,0.684864748516733,0.65685717647467,0.645734460620877,0.614280689609623,0.595475802636453,0.592876511204869,0.632802841598432,0.606787133691713,0.612652048014784,3,3,7
0,0.35,0,0,0,0,0,0,0.35,0,0,0,0,0,0,0.498267259698252,0.501263098191163,0.502570066409461,0.498640847463162,0.488160933774503,0.500383169397824,0.494121299130416,0.498725726359078,0.483983896580662,0.495701238964,0.500202447268748,0.493117389174751,0.615755096300869,0.576345208759605,0.544886941056911,0.648822745713262,0.628127311277209,0.627582875135912,0.620814705682348,0.595283510991919,0.571394030905399,0.642347108126912,0.597883789515465,0.584193506912703,3,7,3
0,0.35,0,0,0,0,0,0,0.35,0,0,0,0,0,0,0.498124459351499,0.501512302667084,0.501799733668486,0.498965703237911,0.484198740625584,0.500532084963643,0.490070599399996,0.498423997186165,0.480012656371582,0.494830322423996,0.501246329367746,0.492033536624501,0.522925537407252,0.540503408972395,0.570674860264228,0.57175339760496,0.546790883276028,0.531137931791788,0.582882613732117,0.489405406728993,0.47961956318974,0.538655726188473,0.529775944783505,0.497909609215486,3,7,7
0,0.35,0,0,0,0,0,0,0.35,0,0,0,0,0,0,0.498418114384418,0.493465793072829,0.499784923717397,0.498274255781917,0.495977653060254,0.49917895436509,0.494736910381994,0.497291529634583,0.492032792402165,0.496560513486412,0.496165930981414,0.494650438565338,0.7462709167077,0.754584108303233,0.665094639227642,0.800544896197793,0.757550882291227,0.753451752010733,0.736119877673073,0.74075019969266,0.681327202392153,0.749885390140933,0.722884233347247,0.69272237216572,7,0,0
0,0.35,0,0,0,0,0,0,0.35,0,0,0,0,0,0,0.498206652537084,0.497648093698746,0.499972435123419,0.498767604810996,0.490682722514504,0.499978877281609,0.493017187020081,0.497704279939086,0.483868066114576,0.495926357851164,0.499534853808666,0.49217498780809,0.60491600404379,0.619334845176613,0.562528264735772,0.67971459367012,0.662761239050395,0.632521588763947,0.627617318445372,0.570011368427266,0.549799793758979,0.610103572216707,0.583172923495804,0.565472400072229,7,3,3
0,0.35,0,0,0,0,0,0,0.35,0,0,0,0,0,0,0.498163342362915,0.501442581910584,0.501117889341469,0.499524266700496,0.484204732624084,0.50046344376276,0.490168556528499,0.498319243945917,0.478065432269085,0.494672906290168,0.502315797022743,0.492188441621255,0.537278632192255,0.503262857499097,0.461091232901581,0.565189036257615,0.537740573418145,0.541784437635421,0.548613012695099,0.492459469633679,0.482406596885863,0.546960326983679,0.495724756807529,0.494961333186827,7,3,7
0,0.35,0,0,0,0,0,0,0.35,0,0,0,0,0,0,0.49721020073784,0.496499185217255,0.500487978948996,0.498120283348914,0.48819376608742,0.4997113700293,0.490121909994411,0.497002268335831,0.478898485436662,0.49410921316416,0.498690827331666,0.490908656010254,0.599496840015829,0.570206482508479,0.505097179878049,0.595555153896249,0.571637216466942,0.56557167734213,0.585851279531929,0.532242424574455,0.523986075462729,0.578432590285849,0.52884128832931,0.526950552358357,7,7,3
0,0.35,0,0,0,0,0,0,0.35,0,0,0,0,0,0,0.496830994422504,0.499969579434583,0.500127905208461,0.498289499079999,0.482530757644503,0.500628203691014,0.489003526692494,0.496606043927164,0.469826047526249,0.492830334891335,0.500573409201831,0.489024348297255,0.542968300660305,0.498266410987559,0.529097936219004,0.576493828456169,0.549730580891966,0.519543914449233,0.560122538737551,0.463762236873153,0.471976978768888,0.524834753351247,0.478554718783349,0.471146851112474,7,7,7
0,0.475,0,0,0,0,0,0,0.475,0,0,0,0,0,0,0.499375036417331,0.498197988704084,0.499801486384533,0.498863808934419,0.50105617337066,0.498419059626715,0.498544874147666,0.498621885598584,0.504514176788416,0.499354516169666,0.497965206961084,0.49964490249875,0.758772588969687,0.755079614154627,0.711251429782067,0.754221665337807,0.754164563836273,0.7775106188933,0.808912352823233,0.780792057765747,0.76376240611896,0.759106690395347,0.73867947362996,0.7735857332472,0,0,10
0,0.475,0,0,0,0,0,0,0.475,0,0,0,0,0,0,0.499832917931752,0.499966346746334,0.50175782186372,0.49958644887775,0.500969148186493,0.499961165551065,0.5029773465755,0.500167736473588,0.502003727284921,0.500731490907839,0.502138738166667,0.501652597847419,0.696338149963367,0.719990238104433,0.674789955711327,0.694983802209727,0.696809043039193,0.717499195740273,0.693884378503273,0.705575488275553,0.70239449612346,0.69709918363904,0.68140887483136,0.702875762442053,0,0,3
0,0.475,0,0,0,0,0,0,0.475,0,0,0,0,0,0,0.499854554625,0.498282754594999,0.50076778286886,0.499535832726002,0.499471402560334,0.499608496868521,0.498494380088169,0.499644870872169,0.500978808010916,0.499238415005419,0.500327412178001,0.499947857376503,0.724613581693993,0.706971247353333,0.66827928403568,0.710141966474533,0.70618634426572,0.712108525603467,0.6990807107921,0.7161101559691,0.71806338368438,0.715535538269507,0.66939652611106,0.711948634189047,0,0,7
0,0.475,0,0,0,0,0,0,0.475,0,0,0,0,0,0,0.496018087661082,0.493788536614085,0.499233335728567,0.497434793881581,0.497138659005498,0.4978789970604,0.497941084979249,0.497238001451501,0.495521006295417,0.496825802716586,0.497062545172997,0.495945991603668,0.84729131221586,0.82483187771272,0.776244857607167,0.80486565430274,0.798454466440553,0.835894549431727,0.827153490308853,0.825559001873627,0.836356861100727,0.824963437015247,0.787671436152047,0.836286536844027,0,10,0
0,0.475,0,0,0,0,0,0,0.475,0,0,0,0,0,0,0.498945248280171,0.496878708358503,0.49916735586535,0.498629535482917,0.501429673608163,0.498188404058504,0.501341245216003,0.498606711160249,0.505510993154002,0.499902961476835,0.499291506897748,0.500659636989002,0.7094996435206,0.746946133169293,0.74033644077732,0.71020491573438,0.7118524973756,0.74183984610458,0.718692931697913,0.755909803003473,0.725864532726993,0.73209452821516,0.697487369218307,0.725478076162147,0,3,0
0,0.475,0,0,0,0,0,0,0.475,0,0,0,0,0,0,0.499167686817503,0.497088756338752,0.498593244152499,0.498926147994001,0.500628076369253,0.498657370909598,0.498892564831834,0.499160525350919,0.504549054185168,0.499420625404002,0.497328317499921,0.499827864188501,0.772964679522647,0.765508114607213,0.741015927899993,0.76218861460176,0.759763538701053,0.79820980028792,0.742923491447033,0.794762699815233,0.775901057993567,0.777071394913547,0.737962504836993,0.78517147269262,0,7,0
0,0.475,0,0,0,0,0,0,0.475,0,0,0,0,0,0,0.499706565741832,0.496129645311913,0.499919378103243,0.499544533170751,0.504090864468498,0.499124177895089,0.504515889600924,0.497566186898001,0.497214579094248,0.500894543407338,0.496695561609585,0.497454075096419,0.705274444239293,0.717265621807307,0.6746337545089,0.704749881628207,0.715873233850387,0.721416796766067,0.698530031903027,0.72969268383138,0.67770489551832,0.711073509785553,0.693181354745213,0.686370626768093,10,0,0
0,0.475,0,0,0,0,0,0,0.475,0,0,0,0,0,0,0.497198118953918,0.49357525701725,0.499552256244783,0.497427113130249,0.496014229108744,0.498034413026608,0.497418785122585,0.495958048120582,0.49033182269917,0.496369304000581,0.49527526904883,0.492623437796834,0.713217799535347,0.74113742636098,0.722946501321013,0.744894728290993,0.73471190719736,0.7544070524364,0.7364661687441,0.706720805294253,0.654415766834201,0.718175662589093,0.6815065671047,0.683233551092647,10,10,10
0,0.475,0,0,0,0,0,0,0.475,0,0,0,0,0,0,0.499439297536748,0.498186409248495,0.50062757659627,0.499067949767749,0.499088704068663,0.498928544653154,0.499489773249167,0.49866490957092,0.495912714204167,0.49885576242292,0.500206797305839,0.498638364022668,0.623777980298571,0.66766221365814,0.66942287510354,0.662907068600183,0.662615797220072,0.662599855271996,0.66611059179602,0.627353531601005,0.604057828310719,0.630852538022169,0.621504618975537,0.607622623718245,3,0,0
0,0.475,0,0,0,0,0,0,0.475,0,0,0,0,0,0,0.498155606562085,0.496911208099078,0.499361743999975,0.498418327998002,0.50023664090416,0.49810312886423,0.499007714634922,0.497891291939175,0.500393425876001,0.498762318368506,0.49877123601425,0.49824822734742,0.725300476078533,0.729053819432073,0.670523371242013,0.72984639861944,0.73241930625262,0.732149102453507,0.77731971017646,0.719257946421473,0.720118703140393,0.70676362739412,0.678596963667927,0.70911833276218,3,3,3
0,0.475,0,0,0,0,0,0,0.475,0,0,0,0,0,0,0.497180720467168,0.494921564014498,0.498997876019058,0.497271166591997,0.497885992033247,0.497324116277548,0.496797150579999,0.496915208005083,0.500081475980915,0.496958275406752,0.496806146375172,0.496608197051751,0.757989284534053,0.75345302787964,0.719227191412927,0.776393154475027,0.771843021803513,0.77147109876654,0.75990197511028,0.777362413417253,0.7459857469299,0.763396341597593,0.747892443285953,0.764234817201827,3,3,7
0,0.475,0,0,0,0,0,0,0.475,0,0,0,0,0,0,0.497906205137917,0.496131240133082,0.50052004580981,0.498023282627753,0.49739519618883,0.498580862737938,0.498382108075668,0.498142235074914,0.497085378590248,0.497919008305922,0.498672143441917,0.496696434603501,0.74800534291398,0.757571853829947,0.7017848484228,0.77846964880174,0.769672488184087,0.765211817161507,0.750250842470907,0.733903110003647,0.726285676688313,0.733163135906573,0.71569189256364,0.75451615252446,3,7,3
0,0.475,0,0,0,0,0,0,0.475,0,0,0,0,0,0,0.498189965220166,0.497654148557666,0.500289864706099,0.497737293530082,0.498522514117076,0.498852397727092,0.499496413568499,0.497997320189336,0.496600810414168,0.498384168396422,0.499211902550667,0.497507925738256,0.7045176042481,0.70676856797272,0.665801110755519,0.711104346349927,0.711437984538473,0.715562045650073,0.743379569012573,0.70376820427046,0.694432270269613,0.700859755257913,0.678921230615933,0.706942466877087,3,7,7
0,0.475,0,0,0,0,0,0,0.475,0,0,0,0,0,0,0.499462559926832,0.495836168288832,0.500022144131037,0.498663883800083,0.498257525192577,0.499217634907109,0.495619519535586,0.497688167251084,0.495038295559493,0.497989357426422,0.497058866637087,0.496078971124001,0.6918114294905,0.67044460614204,0.666349822480969,0.678381795238033,0.67149538913388,0.7258631932933,0.701367969535273,0.690091964535533,0.638992381346563,0.69529292545482,0.650994018152124,0.647283079997767,7,0,0
0,0.475,0,0,0,0,0,0,0.475,0,0,0,0,0,0,0.499125675763418,0.498012228836581,0.500324537580317,0.498816532911337,0.497587137408414,0.49966780084298,0.496516624352085,0.498548103458836,0.494190055700835,0.497824424850921,0.499143655835752,0.496278312173666,0.711004081533333,0.695968908399647,0.6940997501809,0.70495742994172,0.699255187789353,0.721337662160473,0.72098959533162,0.687561996988907,0.666407457534622,0.699895707631573,0.663422816871757,0.676134742587613,7,3,3
0,0.475,0,0,0,0,0,0,0.475,0,0,0,0,0,0,0.49938510435108,0.496361954933917,0.499885117272001,0.498452207498417,0.499770848245163,0.499074422100446,0.497648879430921,0.497645685604084,0.497695762845501,0.498658757652589,0.498183947953083,0.497404193845335,0.69081158320356,0.69841238409772,0.642605624228862,0.717236855177427,0.71270504935522,0.70218035782882,0.683946031679793,0.700611591869393,0.66531494602601,0.69306326914008,0.6670810578282,0.659439059768317,7,3,7
0,0.475,0,0,0,0,0,0,0.475,0,0,0,0,0,0,0.498456163065748,0.496385693549917,0.499764906653752,0.498247473453,0.497519654082663,0.498985631497436,0.496670070423505,0.497421285669748,0.49178635442442,0.497619681649752,0.497073968858581,0.494794929942668,0.701250740328407,0.695985440183333,0.679101321372733,0.70748340073884,0.703359413708333,0.731117187274287,0.70667624143458,0.685767267530107,0.657122954772055,0.694354789620933,0.664993980534903,0.662398519604793,7,7,3
0,0.475,0,0,0,0,0,0,0.475,0,0,0,0,0,0,0.497721364861332,0.494290505786,0.498399695698276,0.497659695657165,0.497457398737413,0.498160558269097,0.49706349867817,0.497062648711756,0.493761140572582,0.497140824003424,0.495932742249499,0.494483668097001,0.761244666804093,0.742425320273507,0.717956352952693,0.754122792076427,0.748434692877367,0.767659852011633,0.74608503884312,0.739830282507253,0.712762071582907,0.739705478202407,0.695387445335813,0.71942329204876,7,7,7
0,0,0.1,0,0,0,0,0,0.075,0,0,0,0.075,0,0,0.507362668718417,0.492486424530495,0.493922425640449,0.500557601778075,0.491249549672341,0.495063139141561,0.493676672496417,0.49836327402366,0.500136347835996,0.498198647468757,0.493091595999829,0.490665610351078,0.774453158860247,0.7313062552343,0.810277920659033,0.90105021016834,0.797902936707527,0.805674433834347,0.77562204552766,0.744098899053487,0.77041493438272,0.740249853734013,0.720778606184433,0.747058931878753,0,0,10
0,0,0.1,0,0,0,0,0,0.075,0,0,0,0.075,0,0,0.502722791393251,0.496250951154246,0.496524918620986,0.497860431150252,0.492719379456167,0.497267097393456,0.495213155174247,0.499130478162743,0.49898094290225,0.496999986223261,0.496082500534578,0.494805817472252,0.70128841145754,0.678482896861593,0.736644524631847,0.665828925045397,0.70496667849658,0.707843191653467,0.699207959501613,0.677372537885053,0.69154153235772,0.685707658789627,0.673877726684353,0.673004606473713,0,0,3
0,0,0.1,0,0,0,0,0,0.075,0,0,0,0.075,0,0,0.503060053406671,0.49586314590133,0.496120073898996,0.494987411023328,0.487579011798005,0.497473538712705,0.492965480948504,0.500431007936157,0.498033519801248,0.500237252177419,0.49780579372474,0.494471182567577,0.571546187142352,0.581591278843931,0.636883058380613,0.530108947936223,0.595833330941043,0.616465084956991,0.624651702884029,0.571422443392946,0.585383396301087,0.570737013156541,0.585412656157385,0.565470257502909,0,0,7
0,0,0.1,0,0,0,0,0,0.075,0,0,0,0.075,0,0,0.509071885450334,0.49643527813858,0.495739612719018,0.500557601778075,0.502770195933755,0.496716263618572,0.4991721120725,0.498634727408665,0.506641942532661,0.496861943065176,0.494690675450744,0.495120708982745,0.82978669103032,0.84820074624534,0.947673221112613,0.90105021016834,0.84574421655476,0.846678816679227,0.88830211093208,0.832322260877333,0.900448171663107,0.812726605863187,0.730041535729713,0.84150408655338,0,10,0
0,0,0.1,0,0,0,0,0,0.075,0,0,0,0.075,0,0,0.500047434731874,0.499697144485162,0.496646367886368,0.499766808959288,0.501204978500169,0.498990661404335,0.499678833273623,0.499591346395579,0.502632026284039,0.500761162904718,0.498608048817908,0.498139886709038,0.654741829991706,0.660856636110193,0.686220423766847,0.653775207927297,0.664945353135897,0.664384460813298,0.68062117096082,0.662587722181451,0.666590537786982,0.655837864576423,0.660168729672699,0.645655275923017,0,3,0
0,0,0.1,0,0,0,0,0,0.075,0,0,0,0.075,0,0,0.497182140544339,0.498524421447576,0.499133707107649,0.500780705859745,0.487642238262424,0.499084832670198,0.494003102241498,0.498034353397912,0.489020849241496,0.497905011910586,0.498199537560743,0.495239325865168,0.571476520432601,0.606480239796583,0.611009174926217,0.566218552811421,0.56510141705199,0.574162691313241,0.604028645420151,0.551850655025975,0.56232654943699,0.570476331603355,0.591562100958614,0.571400924070729,0,7,0
0,0,0.1,0,0,0,0,0,0.075,0,0,0,0.075,0,0,0.524900519411756,0.55651362981975,0.642985014476184,0.267034838602331,0.740758382910167,0.52467323036517,0.47470645545742,0.48944830277124,0.506454326819335,0.528846693579589,0.49795688682683,0.496524500744579,0.199667736348455,0.220929418788363,0.202003805794467,0.296730264664073,0.209338779580379,0.22239803037809,0.173897584983031,0.285181866058567,0.314482308015695,0.174226015225001,0.282592700015129,0.276141591538701,10,0,0
0,0,0.1,0,0,0,0,0,0.075,0,0,0,0.075,0,0,0.515150546962167,0.537891789895332,0.637503600598541,0.254430977189998,0.685199404728746,0.521042776954317,0.465292857016419,0.486350156656829,0.479929650229997,0.507811007490085,0.503519769315165,0.48464101378658,0.190430398141059,0.221596712448224,0.147699263319737,0.261334467712841,0.158277985454502,0.182993069094048,0.165035853245418,0.228617811674616,0.253660034623067,0.14596393229688,0.245494872416209,0.226760392448396,10,10,10
0,0,0.1,0,0,0,0,0,0.075,0,0,0,0.075,0,0,0.470897357670418,0.532016469709748,0.570525842079243,0.479403813708325,0.508272251850087,0.501853068672048,0.487578329650421,0.481706517705743,0.431552402134582,0.490986159515836,0.530091800799164,0.506625550475246,0.220174417420342,0.236190342020821,0.147173428962088,0.256275293206333,0.172266821278271,0.185285679787287,0.222544709698713,0.182587507555669,0.207151315386149,0.175519041340442,0.196069437382795,0.208346029122615,3,0,0
0,0,0.1,0,0,0,0,0,0.075,0,0,0,0.075,0,0,0.478045346386421,0.524835433901495,0.544791750233875,0.45369836286983,0.496391828467836,0.498210861641448,0.503628986466003,0.480758424233164,0.426873721616658,0.489369706457001,0.523834623825826,0.502868799140163,0.247898805266296,0.256363609188494,0.165786214303167,0.259662203707163,0.202370855247852,0.184964161571681,0.259666402200114,0.197545476782171,0.226976627020513,0.19327671440283,0.200235947487499,0.21043178887041,3,3,3
0,0,0.1,0,0,0,0,0,0.075,0,0,0,0.075,0,0,0.480962853715585,0.521056998080917,0.516777036009648,0.437825929549581,0.486668342362503,0.49555002268614,0.511208169548252,0.480286810647493,0.425681236962828,0.487455091842338,0.522105327903739,0.50050286308533,0.250566776224778,0.254642333451361,0.159621817744985,0.23245716910962,0.200628831202826,0.169423917514495,0.266734359746085,0.198319128466183,0.228408164315768,0.204184262025812,0.197991925937473,0.206949755332419,3,3,7
0,0,0.1,0,0,0,0,0,0.075,0,0,0,0.075,0,0,0.476844226492085,0.528852582998741,0.560040263154141,0.476148157650243,0.506107408469336,0.497183155787715,0.501767580695582,0.480798201287581,0.435901586626915,0.487740548403087,0.527030243814249,0.505974892551831,0.3115174951214,0.308384868952279,0.188020088384069,0.344904160176425,0.242120856333643,0.23957523184899,0.282419338244124,0.229105235168861,0.267542631377672,0.236769642418984,0.236917989946736,0.254792836046495,3,7,3
0,0,0.1,0,0,0,0,0,0.075,0,0,0,0.075,0,0,0.479937726171005,0.527254483212914,0.551751639420692,0.452721520197576,0.496919213577087,0.496853818709474,0.505358337977748,0.47970220167258,0.432469257177746,0.486666755700838,0.524647413708664,0.501319759036585,0.275669925844711,0.288817307417824,0.17166748516606,0.276919084349685,0.20853438017759,0.200164253792273,0.263069340245044,0.214903896249391,0.251199061027745,0.213876203005856,0.2260396404054,0.23246915036056,3,7,7
0,0,0.1,0,0,0,0,0,0.075,0,0,0,0.075,0,0,0.514061450664087,0.549321912618831,0.636267676043508,0.290493554623083,0.693732998850669,0.52079036798203,0.463845504875667,0.487570251931743,0.483158794697079,0.514874303051005,0.505105846361408,0.496860187222995,0.17865866866163,0.217208456997619,0.187587671674213,0.228447010896217,0.154905553589992,0.196071974568069,0.174788640494159,0.241231565002153,0.270285864012059,0.160504275833664,0.242479786097244,0.245090064868459,7,0,0
0,0,0.1,0,0,0,0,0,0.075,0,0,0,0.075,0,0,0.502868752104666,0.536458774472749,0.63356977683045,0.280314904495663,0.636866806476257,0.51711037701142,0.469517628904754,0.487018498176661,0.469832580107249,0.505009586552757,0.509440878250166,0.494053401064747,0.181981962709757,0.234975037031041,0.177947503238446,0.231748679564329,0.147709386478749,0.181029766491511,0.184264082151814,0.205192750767507,0.224330484834049,0.13868066754204,0.220054929250049,0.209764109404402,7,3,3
0,0,0.1,0,0,0,0,0,0.075,0,0,0,0.075,0,0,0.508072879878,0.535654361793331,0.634232168170087,0.266840842680244,0.629779495278672,0.51731722612621,0.470269865360251,0.487679852920246,0.475425517873413,0.503237196983093,0.507576804015827,0.493355231833078,0.206870101452138,0.238741467122517,0.174167343951893,0.236246107511857,0.146602005375621,0.212499569979445,0.182718138491387,0.235135453098547,0.262776248926891,0.159197330718151,0.246241333755521,0.253533551212929,7,3,7
0,0,0.1,0,0,0,0,0,0.075,0,0,0,0.075,0,0,0.501369345933836,0.533687947794579,0.635829305873602,0.295432597585659,0.60638432250334,0.517403509997058,0.471675507501584,0.485762934548995,0.463410143828998,0.501688025698337,0.508462761013243,0.493636540415162,0.190257465445221,0.224452280209151,0.152248184172823,0.233156396174211,0.152166607942819,0.202637659664058,0.187914886003057,0.211990089217089,0.234763092611346,0.151385961029815,0.217214345979779,0.222295901505703,7,7,3
0,0,0.1,0,0,0,0,0,0.075,0,0,0,0.075,0,0,0.495003349603752,0.529013575956583,0.631903709525602,0.300538711137494,0.542697031780335,0.513785817882362,0.481034871735164,0.484676336867,0.447025272889999,0.491261107652002,0.510252763393828,0.49150231840033,0.217542514804486,0.236663951334494,0.143620173572551,0.236959630537843,0.156706532292547,0.168184890868444,0.192793071110622,0.217281012063053,0.248642795993707,0.172194302431781,0.213208764147615,0.239354471756519,7,7,7
0,0,0,0,0.2,0.025,0.025,0,0,0.025,0,0,0,0.025,0.025,0.516000250763,0.495255545872584,0.512545832184861,0.565406782010746,0.50335639856699,0.523981209786871,0.523955314626005,0.503113954558546,0.544657152070789,0.503009100177923,0.503305704576042,0.50476893844255,0.94406468734626,1.18438893149094,1.09484211876617,0.849228906138733,0.852588489074853,0.97129184925356,0.971991989016567,0.961404846676373,0.963963633018847,0.897896099165027,0.835873577578707,1.02900851384565,0,0,10
0,0,0,0,0.2,0.025,0.025,0,0,0.025,0,0,0,0.025,0.025,0.516225045903167,0.499360751597584,0.514072394759594,0.558927941549041,0.493763993281414,0.516987474319612,0.516286588456586,0.503174607699464,0.529922712423291,0.499344831277671,0.502103925644042,0.502296748332293,0.793917541739413,0.916902954316253,0.843278806069387,0.601445840068737,0.642794963228169,0.721123068106127,0.822709679301987,0.764853690478407,0.772801681963687,0.751234049833647,0.628135085070463,0.782990979607473,0,0,3
0,0,0,0,0.2,0.025,0.025,0,0,0.025,0,0,0,0.025,0.025,0.522370439343086,0.510199974634668,0.516302548684621,0.565960849978666,0.50740364690775,0.521568085232812,0.541797969171921,0.508496863224462,0.551776453605788,0.5058038952755,0.508981942529374,0.514088702199962,0.8683944505938,1.17740658828291,1.02530932819836,0.667219157832313,0.73349296358818,1.01575920734935,1.0356492717596,0.912769453192273,0.886151792138687,0.827064438297753,0.739053884774253,0.89106562716104,0,0,7
0,0,0,0,0.2,0.025,0.025,0,0,0.025,0,0,0,0.025,0.025,0.519744598610828,0.512189642706414,0.516245261325469,0.562238435843164,0.500402127506999,0.520617448086568,0.555959501642002,0.501994370116216,0.531469238665955,0.49624722941075,0.505388614747704,0.507374782714049,0.97655262596412,1.34448458537448,0.808329983832927,0.94074541479234,0.902050389288093,0.97041548943478,0.90476925678354,1.00168369862476,0.938891042864107,0.95654451697412,0.79986900552672,1.03965787529996,0,10,0
0,0,0,0,0.2,0.025,0.025,0,0,0.025,0,0,0,0.025,0.025,0.515585909008337,0.493118226512172,0.51475011178137,0.561051000750831,0.472597503211324,0.519487162812644,0.526555486890379,0.501302027309794,0.522282224362959,0.493604262059006,0.499757134066124,0.497057117504465,1.00424245995851,1.08375347477328,0.915035660687933,0.795454625609967,0.770347772761247,0.930742216364533,1.05338477111701,0.969499957838133,0.99359363104082,0.956985156246193,0.729776285005793,0.978591513466487,0,3,0
0,0,0,0,0.2,0.025,0.025,0,0,0.025,0,0,0,0.025,0.025,0.514159027428502,0.518064619256415,0.515163810886929,0.566477420976662,0.511501583226749,0.524904265212589,0.565439934547879,0.50274870946721,0.546555332763205,0.505765455871915,0.512642317647874,0.508687847013209,0.982554195673193,1.05622875367731,0.998291945407613,0.820793034413687,0.795984377070893,0.996041129330293,0.827533663274353,1.03259800536503,1.02230230842331,0.93189356239736,0.755226593728607,1.03837163900134,0,7,0
0,0,0,0,0.2,0.025,0.025,0,0,0.025,0,0,0,0.025,0.025,0.50093848990067,0.50035819783717,0.578079356464141,0.374561677348248,0.50335639856699,0.512309148364275,0.409989328268125,0.354099762921709,0.564677737251623,0.453255159146585,0.58911027737625,0.515321178638209,0.406701409447737,0.496872671012257,0.239604181532796,0.361595149623854,0.852588489074853,0.255615757781334,0.276119701261911,0.170898739340767,0.296722044456241,0.292234666054325,0.292227598055569,0.31529805247514,10,0,0
0,0,0,0,0.2,0.025,0.025,0,0,0.025,0,0,0,0.025,0.025,0.508153359997414,0.45773990624175,0.505591815153292,0.538430305660415,0.461475641952745,0.514718271165762,0.509288116980332,0.493053105833877,0.528619026032038,0.504813104474005,0.468671157759121,0.488015310311795,0.77149086639322,1.09027078226611,0.8816176672109,0.611561051094221,0.563473458975333,0.762140810307413,0.919725357358687,0.806107406731747,0.794484009568187,0.73491923046804,0.596797508829602,0.771186882205087,10,10,10
0,0,0,0,0.2,0.025,0.025,0,0,0.025,0,0,0,0.025,0.025,0.503459470637335,0.481551059826251,0.510877014381845,0.421305483788745,0.235654350310415,0.507014750338351,0.455198213771922,0.423649980104875,0.479120047884538,0.451505965093173,0.567264738038455,0.508391816727129,0.533119243248543,0.577378242469437,0.233985960231907,0.264386373236921,0.21637965111877,0.383116533824999,0.516201308743531,0.216223669058409,0.334181193686419,0.472785162243935,0.24244887268808,0.291345034398624,3,0,0
0,0,0,0,0.2,0.025,0.025,0,0,0.025,0,0,0,0.025,0.025,0.505598013959752,0.499589191768996,0.524462357048151,0.389673808707164,0.207073958361413,0.506806595477818,0.452937514045834,0.405901691947207,0.504520466475623,0.452426965353249,0.580018525795708,0.521393753884212,0.544290125649026,0.393754571868548,0.187499575964913,0.290827961034576,0.199670695543052,0.343711456770301,0.383069236258846,0.218319900086769,0.353234286244514,0.47251217792097,0.247032838388164,0.323409673435592,3,3,3
0,0,0,0,0.2,0.025,0.025,0,0,0.025,0,0,0,0.025,0.025,0.511061535797501,0.500367168147164,0.515095697556257,0.399908678807327,0.241403930300083,0.509647254889765,0.461146529428669,0.420264206460627,0.504256854023038,0.458281665063669,0.57410230870704,0.523478418628463,0.541395092643509,0.434797142686421,0.185372586310587,0.232533395666655,0.169357433051372,0.35959740373823,0.396083630396994,0.217404523623059,0.343438892001563,0.464454985321805,0.205864466573117,0.320777293165129,3,3,7
0,0,0,0,0.2,0.025,0.025,0,0,0.025,0,0,0,0.025,0.025,0.507697973137749,0.498232943705341,0.523926355393886,0.389217000210578,0.167428015060415,0.508053964625393,0.447728073808918,0.407201757349634,0.501027919461296,0.45386549288292,0.583529714824294,0.52291371647388,0.5793662116359,0.41735614213424,0.182009283149535,0.282820121686898,0.191138369594792,0.334278474054326,0.400683632221593,0.226137469253673,0.361195949081432,0.466211444042062,0.238639165852104,0.334176750919327,3,7,3
0,0,0,0,0.2,0.025,0.025,0,0,0.025,0,0,0,0.025,0.025,0.50578831238775,0.499899482892414,0.526058143827712,0.386229830733328,0.189231675951243,0.508066434108778,0.453424192255915,0.414180605387963,0.503470867997208,0.455875876165669,0.578730802811702,0.523504591847876,0.534267953231223,0.428414782491195,0.171340029056785,0.250986747904557,0.165886405778661,0.344019195331545,0.356409836144286,0.223822357741145,0.367443519734962,0.473252642880925,0.222002806397141,0.343129350571249,3,7,7
0,0,0,0,0.2,0.025,0.025,0,0,0.025,0,0,0,0.025,0.025,0.496911137450667,0.50274682000458,0.566770213912906,0.382212158766504,0.157019398949995,0.506961303368902,0.406975254653378,0.345097145858546,0.552152007107372,0.448800110742917,0.58505806952254,0.520189312220378,0.373816750093414,0.345599502027323,0.161231400368573,0.240686792939653,0.104445687149699,0.204221905007651,0.275014611252187,0.161616787719361,0.284704735344466,0.286640124220083,0.173287300912707,0.295054859924087,7,0,0
0,0,0,0,0.2,0.025,0.025,0,0,0.025,0,0,0,0.025,0.025,0.496410389597503,0.511762361025666,0.576980692575151,0.372998649800246,0.0555323169528325,0.511332895369085,0.403947688134423,0.336424665685792,0.572392453543961,0.449124682579838,0.589321322103797,0.522306941840463,0.421538210842223,0.456236961911073,0.223830119004246,0.314526212170791,0.121836535682055,0.266148786818768,0.318760683467119,0.181528302589452,0.317648017381662,0.307470744485599,0.212380347743598,0.330017470299559,7,3,3
0,0,0,0,0.2,0.025,0.025,0,0,0.025,0,0,0,0.025,0.025,0.496765325647419,0.510580971559744,0.581188680165184,0.376335851136997,0.265461546647248,0.512100971922663,0.40755501649283,0.338250225639626,0.561068289811544,0.451858802607836,0.592964894548709,0.518563425997712,0.328360608252411,0.370233023046806,0.193965197661895,0.280209704244295,0.108701383825174,0.209270556133733,0.242931985444361,0.144557455351753,0.256107199945583,0.239804004683793,0.194761352971474,0.248932749819553,7,3,7
0,0,0,0,0.2,0.025,0.025,0,0,0.025,0,0,0,0.025,0.025,0.498462953962166,0.513842073045168,0.570761858763944,0.363351324614081,0.00897549512108,0.507803012559279,0.420075719710832,0.352980928449625,0.539371265650539,0.448784191312416,0.590148398851454,0.517458916394713,0.418520648727549,0.349887534184751,0.141827525099994,0.335236656861411,0.150661515629501,0.222912162592525,0.254427264374783,0.166082863088794,0.292419934061238,0.318157908495163,0.235368540865707,0.297295150330319,7,7,3
0,0,0,0,0.2,0.025,0.025,0,0,0.025,0,0,0,0.025,0.025,0.496913723789584,0.512878309899747,0.576164617853243,0.375248778967329,0.401139044230331,0.511069930492462,0.404835424864251,0.339430597645634,0.576049990860872,0.45262532739784,0.588727471665709,0.522427824816128,0.401982188066939,0.398419104949876,0.176790034947985,0.319047248380217,0.127946484073708,0.272032458223745,0.215202635726384,0.176042982104147,0.310870772823635,0.298157597899052,0.228692224305288,0.311586980826711,7,7,7
0,0,0,0,0.05,0.025,0.025,0,0,0.025,0,0,0,0.025,0.175,0.493676918837832,0.496536264446667,0.499594103017293,0.496418884979585,0.503164785683498,0.4986686410261,0.503122189086162,0.4989118371855,0.491270047813919,0.496566334478257,0.491238763769752,0.493260832701662,0.653099327755969,0.390947685310055,0.463809401287731,0.382181338999455,0.347593431922203,0.317375091537045,0.368396484200521,0.655703240193013,0.628125817436966,0.662073994409357,0.347287403045241,0.666570668422234,0,0,10
0,0,0,0,0.05,0.025,0.025,0,0,0.025,0,0,0,0.025,0.175,0.505857690451171,0.490023794339919,0.500548717981118,0.496778918151665,0.485353443329495,0.498724973320509,0.485314445876082,0.495331100893333,0.483708185777414,0.495999578748001,0.49218704736075,0.49301021414625,0.705204268365447,0.616026551179553,0.917243827991273,0.621856832082711,0.596465730054387,0.589518692482175,0.7271892490875,0.67224876784672,0.676065162107507,0.68046218766826,0.596060408683887,0.75728087504158,0,0,3
0,0,0,0,0.05,0.025,0.025,0,0,0.025,0,0,0,0.025,0.175,0.49874141698208,0.492859629922168,0.499159003666296,0.498433495307165,0.507004245074336,0.499221477700488,0.505705164860666,0.496385784118331,0.494844452834252,0.496943922937334,0.49091805485175,0.493355582674832,0.685824579393667,0.774170219094167,1.39451015283544,0.766169252762347,0.709413684300853,0.819366238585273,0.97104751812082,0.690730900937093,0.68754898061806,0.69270271121516,0.700234459380013,0.680963528059453,0,0,7
0,0,0,0,0.05,0.025,0.025,0,0,0.025,0,0,0,0.025,0.175,0.510072003881169,0.483048057389169,0.503320057583065,0.497328641523916,0.47895490950275,0.498155664476988,0.494759121028,0.497838714278419,0.48230477575184,0.498917012606751,0.49212674079975,0.493058822098169,0.68110334446664,0.828175881491133,1.24097915333893,0.755173900429047,0.6814868007033,0.58256246601016,0.93889664112626,0.652348519154013,0.654174595335335,0.659309592876377,0.573453722624569,0.764650988098827,0,10,0
0,0,0,0,0.05,0.025,0.025,0,0,0.025,0,0,0,0.025,0.175,0.517683213247665,0.488427843928997,0.500298702542295,0.496042242655165,0.496995366183421,0.50258533605685,0.495690612757079,0.502379569197751,0.502412354463081,0.499648424654333,0.494590138543168,0.499664278853584,0.714246922931053,0.933973215393187,1.06240942453377,0.8491777404252,0.762466994349373,0.898153708893807,0.990597808077433,0.71065071984256,0.750505455132433,0.71317793838292,0.714733438849653,0.81630517270522,0,3,0
0,0,0,0,0.05,0.025,0.025,0,0,0.025,0,0,0,0.025,0.175,0.511802125252166,0.4888952539895,0.501066447460232,0.497205477162083,0.486388918094002,0.499264184628009,0.443168968416495,0.497670151150749,0.489076805266257,0.498525652727835,0.491759727201332,0.493448991458502,0.70461344411528,0.270596870018756,0.304403185476719,0.295823343917464,0.266471851532669,0.273612195844619,0.298519721878313,0.689720135689227,0.717264757181967,0.69167813798296,0.302550958940191,0.77042256695946,0,7,0
0,0,0,0,0.05,0.025,0.025,0,0,0.025,0,0,0,0.025,0.175,0.475597214808749,0.455155939715252,0.624794939878987,0.366473350479669,0.730095923351996,0.495554389258584,0.499089586007494,0.342673711677333,0.470952604485671,0.507784083443749,0.497986687181663,0.45518744033908,0.275610640272654,0.316558750902596,0.422463012845224,0.312898274450966,0.247760936521728,0.257476940318111,0.268320489271565,0.24622089652821,0.302835581440301,0.281023206735536,0.292472794379279,0.253946230526623,10,0,0
0,0,0,0,0.05,0.025,0.025,0,0,0.025,0,0,0,0.025,0.175,0.481781671261751,0.475517879189169,0.630078603859207,0.377277578059165,0.733509572913499,0.500468743189501,0.492999257992079,0.344202246797585,0.516853012463588,0.516190100621918,0.506581002262334,0.466471120872995,0.213189558010842,0.226625315375074,0.246091068652744,0.218207080431545,0.187561528464855,0.16678919606958,0.210510429694407,0.191910392215488,0.221308003126078,0.225149659812577,0.210978671941188,0.202380390501065,10,10,10
0,0,0,0,0.05,0.025,0.025,0,0,0.025,0,0,0,0.025,0.175,0.463589659831996,0.507307851438753,0.533350447601219,0.413394444143251,0.505215445915167,0.485023056435659,0.458744126010077,0.474306088315586,0.472318480953669,0.471975057763001,0.514628214548833,0.485890995456577,0.427744313957082,0.37159244271249,0.147999039601447,0.247576000941181,0.251178408581607,0.289318017291616,0.387968692727755,0.317229770932032,0.311716540537317,0.394555009949485,0.27862589246247,0.279999073232649,3,0,0
0,0,0,0,0.05,0.025,0.025,0,0,0.025,0,0,0,0.025,0.175,0.464532748846415,0.505903703740165,0.531568973774424,0.392298519224085,0.506253023015751,0.485655029953992,0.450571976700667,0.469588359716335,0.48863469551992,0.469148258163835,0.510302251145333,0.487228503854328,0.382503978117995,0.293221295452837,0.221917435566837,0.241846280005471,0.223014144794913,0.267297130619211,0.279169707221804,0.295181596653315,0.307022149845511,0.355833465910599,0.266761354480033,0.270473655565167,3,3,3
0,0,0,0,0.05,0.025,0.025,0,0,0.025,0,0,0,0.025,0.175,0.464380140259914,0.503892330985917,0.547360198834266,0.395191486905998,0.507013183332504,0.485249287676535,0.452417213172748,0.468861970260588,0.478244984101838,0.467558674541914,0.511124578786166,0.484664833989416,0.349180808316884,0.303817226827797,0.307307575336269,0.242095249120439,0.223888402427814,0.229738927824833,0.302732742651183,0.255029937085113,0.253748722300403,0.312396032211327,0.223771050831615,0.237630594028262,3,3,7
0,0,0,0,0.05,0.025,0.025,0,0,0.025,0,0,0,0.025,0.175,0.461190201919248,0.500644988430668,0.533679157239189,0.418539584131418,0.485385458418421,0.483838405457865,0.450004171505583,0.468488695937003,0.469381014870419,0.467581025604579,0.511026584403919,0.480658714981087,0.331695023881853,0.315466022508226,0.279766073972697,0.184042382152609,0.181364707002144,0.228398118362601,0.341931775916371,0.241333013600237,0.245557303508013,0.302832190095749,0.217143414049279,0.215330992666301,3,7,3
0,0,0,0,0.05,0.025,0.025,0,0,0.025,0,0,0,0.025,0.175,0.465327416236829,0.507480631043086,0.538940090993773,0.405561580748747,0.507151850542914,0.48571528028051,0.452416639109828,0.470535180233753,0.484015650050503,0.470441064237332,0.512417847761418,0.488015440894412,0.270154993512089,0.217230032297894,0.199172345431996,0.155363217145136,0.154177299866645,0.181145693299876,0.212822545978737,0.205737806632777,0.210662066852046,0.246550235388599,0.189044586799243,0.197095869869225,3,7,7
0,0,0,0,0.05,0.025,0.025,0,0,0.025,0,0,0,0.025,0.175,0.467480022741665,0.500004954288914,0.583461018833506,0.342382715091418,0.65718650061533,0.484397976014705,0.443168968416495,0.389932248845332,0.488910139886542,0.49119648804342,0.511933069947497,0.471128170360248,0.184708709165721,0.294213374090831,0.476946125070705,0.30063625487038,0.234447538449566,0.24376967506298,0.298519721878313,0.161251090083179,0.18468751475843,0.18627810448429,0.259129253332703,0.175598641687628,7,0,0
0,0,0,0,0.05,0.025,0.025,0,0,0.025,0,0,0,0.025,0.175,0.466824866589747,0.491061699522169,0.594427527302824,0.343119009005664,0.696076161095755,0.484069156981525,0.44986769235316,0.391581462849331,0.510487157302589,0.489734933450501,0.504403641764912,0.473600480952001,0.250834618856585,0.333303081861613,0.376842837267017,0.292768071452471,0.240554700829867,0.232440753390484,0.28755663375484,0.211650632572694,0.251564828683982,0.246079830832734,0.269064980825851,0.243996597563933,7,3,3
0,0,0,0,0.05,0.025,0.025,0,0,0.025,0,0,0,0.025,0.175,0.465163386469499,0.489368713338746,0.60428226348412,0.342801746299335,0.700801178940753,0.485326302062359,0.461069906854078,0.390775148751754,0.509282676571752,0.487560030885834,0.50186089857533,0.471359486338497,0.262346431140594,0.272082302097417,0.326715601369605,0.260628790915687,0.204329875952065,0.191037079564046,0.245131750043888,0.218978597677829,0.259320523165841,0.257677689238912,0.210168505097655,0.23490105802893,7,3,7
0,0,0,0,0.05,0.025,0.025,0,0,0.025,0,0,0,0.025,0.175,0.467734485380998,0.478344742516498,0.610416543020565,0.363555438186665,0.681643854340496,0.488421297899876,0.465668114293584,0.404423225793164,0.490425181892505,0.488046564345751,0.499104611341414,0.469029334345583,0.251629656645885,0.72444593783776,0.981146892247647,0.591261829623124,0.550395610790383,0.610005687237881,0.765214924326727,0.218417548942107,0.24893538936523,0.249588017033391,0.551939193161185,0.231271478262889,7,7,3
0,0,0,0,0.05,0.025,0.025,0,0,0.025,0,0,0,0.025,0.175,0.468118800831917,0.486701836486003,0.605148521584008,0.348422305432751,0.716680564863327,0.486974373173675,0.470485369954577,0.384549959895253,0.514661035125584,0.493339445839001,0.501996742434415,0.473331914806329,0.24453053278891,0.263403522402204,0.304977321605487,0.210512059037465,0.177494543893739,0.192585512862109,0.213429952946481,0.217953493889307,0.258877574916284,0.253696755378464,0.231895405843979,0.232564844496265,7,7,7
0,0,0,0,0.025,0.025,0.05,0,0,0.025,0,0,0,0.05,0,0.504158837310166,0.502463099509004,0.50158836291975,0.501057082010499,0.492688104141831,0.505064381729912,0.498575293996748,0.498753583694582,0.503230264759753,0.501301539724744,0.502230632088839,0.504960677997497,0.566476156351651,0.568729078963301,0.560156161032347,0.540717536734273,0.560965425313497,0.568693589768431,0.565136817111073,0.579363913139287,0.585059617242107,0.579367918984013,0.580733173105215,0.59295243796468,0,0,10
0,0,0,0,0.025,0.025,0.05,0,0,0.025,0,0,0,0.05,0,0.501544352266586,0.499623513835417,0.504093842428992,0.501213448589749,0.502433639037827,0.501633418962774,0.499308748970503,0.499353345962913,0.499369451233173,0.500312031636832,0.499983477749413,0.50255047170275,0.633202061320013,0.630349563174127,0.557050913372887,0.602766056190768,0.615084276400676,0.600142020286117,0.628980100389056,0.639424123283311,0.646406614322713,0.638114767600905,0.637583137858969,0.622457039555117,0,0,3
0,0,0,0,0.025,0.025,0.05,0,0,0.025,0,0,0,0.05,0,0.502723394270913,0.499254473918086,0.501202383978716,0.50050642345883,0.495534942045163,0.503008034804236,0.497860819443002,0.499107888534081,0.499646193848508,0.500078919132835,0.498879834192002,0.500842810765334,0.662318067059985,0.659167585439964,0.641602148270439,0.646012915525021,0.652177443157357,0.652537937770103,0.660792885767354,0.663896235995469,0.66039128923485,0.66621480778831,0.660566779081699,0.666816129068267,0,0,7
0,0,0,0,0.025,0.025,0.05,0,0,0.025,0,0,0,0.05,0,0.499837320383085,0.487710681076669,0.504407854680684,0.495845759399583,0.499189568542158,0.500749722399735,0.49582275833659,0.495489608857582,0.50637050924467,0.495836257152081,0.489353081897502,0.491942096569835,0.736285830984373,0.746478104161487,0.672654792219,0.703686812981053,0.715352107769833,0.740748593815633,0.720916659846973,0.760473500625233,0.75279589481592,0.72337304634306,0.748543898827733,0.720495543383667,0,10,0
0,0,0,0,0.025,0.025,0.05,0,0,0.025,0,0,0,0.05,0,0.501462567858084,0.495462960326836,0.505806351320902,0.498785323029244,0.495709398347992,0.501488652044065,0.497312942023251,0.498133793584083,0.494280699811918,0.498508896453416,0.496650348137251,0.498854339590252,0.662783277846024,0.671800774079727,0.597877549382894,0.649814237378291,0.652241665000799,0.645228131293331,0.658676703537222,0.687710545101307,0.68475449876726,0.680509545521473,0.676564426395433,0.660432281530901,0,3,0
0,0,0,0,0.025,0.025,0.05,0,0,0.025,0,0,0,0.05,0,0.498646490062333,0.491868862247509,0.501708254446874,0.498096015865917,0.496657120706163,0.500239228250734,0.497522756112664,0.497314748770253,0.483222738954663,0.497795958773582,0.493377592061,0.495873589591832,0.688158516677147,0.67272621430306,0.668127989023447,0.665446133737993,0.668962132033693,0.66927425557872,0.66990822834988,0.7002164775865,0.685043878150207,0.690815567009587,0.6876538109569,0.68710618487624,0,7,0
0,0,0,0,0.025,0.025,0.05,0,0,0.025,0,0,0,0.05,0,0.456963573070669,0.506958423780247,0.579461021484877,0.446531981800996,0.889178265023827,0.480678403945925,0.504773609910166,0.312158967404917,0.752778580582332,0.525215241159918,0.557811208868913,0.521187285564832,0.303437334464833,0.268243740297841,0.251456455109992,0.398272902420704,0.324184442289223,0.31157377366387,0.268343826015967,0.202894932343517,0.346120898466286,0.180681956937653,0.25447192533143,0.371991715929001,10,0,0
0,0,0,0,0.025,0.025,0.05,0,0,0.025,0,0,0,0.05,0,0.459618671552084,0.493579544182001,0.572396345034494,0.449701274749168,0.882642368622498,0.4863138780447,0.498514541314586,0.317391129046752,0.741842522845172,0.524306121193246,0.555180788852835,0.518415315110082,0.26803486064123,0.252398983000167,0.149015810778471,0.377272611246002,0.299224180589125,0.269923168060657,0.231490469262847,0.186115305274013,0.315486333610641,0.166114747368942,0.237785385605835,0.338888747232522,10,10,10
0,0,0,0,0.025,0.025,0.05,0,0,0.025,0,0,0,0.05,0,0.473915108974415,0.481386522517249,0.502041637126661,0.455002091721167,0.297316472907164,0.485249355982259,0.435566306320834,0.445805718504329,0.419774712351335,0.484796859431748,0.487243513276167,0.415476127182001,0.265168980754595,0.305373195544179,0.290214637740211,0.288578773252711,0.249480666760667,0.279282853617312,0.274625051681035,0.189628060567486,0.269854332572932,0.252305018804654,0.240404622554485,0.252354742717912,3,0,0
0,0,0,0,0.025,0.025,0.05,0,0,0.025,0,0,0,0.05,0,0.471703857097083,0.478016113589672,0.503188049607985,0.451798191828584,0.313720368268741,0.488970127769551,0.43646945654084,0.436930402322582,0.434393670701422,0.484536615219162,0.486612496438249,0.420731386062829,0.265578674004663,0.292245805560958,0.287245068129221,0.290468849548305,0.240998210222311,0.28604465019606,0.261663378634689,0.182684722977336,0.266741741083633,0.242553952028927,0.235100401402325,0.248362239440395,3,3,3
0,0,0,0,0.025,0.025,0.05,0,0,0.025,0,0,0,0.05,0,0.477817116244916,0.47923312682309,0.503866540356691,0.448651007190244,0.325192976030081,0.489051228022359,0.435691378778171,0.436232773624084,0.428517340169839,0.4851370051895,0.487563214157996,0.423202124938916,0.258243668455201,0.298561705471378,0.294610728631139,0.296197914151277,0.242965564532174,0.277892766420629,0.265996058725939,0.178249431569428,0.266563897051115,0.238497879979273,0.237548114888999,0.251833601706165,3,3,7
0,0,0,0,0.025,0.025,0.05,0,0,0.025,0,0,0,0.05,0,0.468919574677579,0.474833491278423,0.505212192006303,0.449381407391081,0.354926058863163,0.482890448234693,0.438507925531496,0.436148066897834,0.437936840283584,0.485340969656835,0.485216995653667,0.421110145034163,0.265298897882309,0.296081963867747,0.272884204393279,0.297189820579182,0.243492549171016,0.279661336069289,0.261378487755669,0.180522290938828,0.26885518764881,0.23971225554203,0.241985168821097,0.258551162976925,3,7,3
0,0,0,0,0.025,0.025,0.05,0,0,0.025,0,0,0,0.05,0,0.472164242474082,0.475472166250091,0.504942271561751,0.450599847276663,0.33793198346699,0.485814393167723,0.436229823662415,0.436766674831,0.429036620682251,0.484749202348661,0.484277875265417,0.42166403285691,0.253404996848779,0.298471738430963,0.286660208342847,0.294988238832276,0.240644426145532,0.274728583925443,0.265154688376507,0.179318182272049,0.265348366569722,0.238509160709695,0.235729966199093,0.252655817397418,3,7,7
0,0,0,0,0.025,0.025,0.05,0,0,0.025,0,0,0,0.05,0,0.462417710978167,0.490229691632504,0.553156813153777,0.440084154117829,0.738445134152164,0.480309776302076,0.469596134093001,0.365873848199499,0.593811625798674,0.497303530641665,0.514111988454914,0.475647133580662,0.292495795786229,0.281583583953269,0.239260444614284,0.376090769819255,0.273315659343956,0.290028820119325,0.271975555807423,0.168224937247209,0.284685218655497,0.205562016312495,0.247586465355168,0.30010333522604,7,0,0
0,0,0,0,0.025,0.025,0.05,0,0,0.025,0,0,0,0.05,0,0.460731649369001,0.490399790785756,0.552695387963192,0.439267056876162,0.78905162975841,0.478203479422507,0.47491470436733,0.351910895978585,0.609417623885082,0.500431046748997,0.51669554484933,0.485403342551166,0.280862056995687,0.270006729766943,0.22591055040785,0.380853371074977,0.277116053336149,0.272100801174889,0.258252554190334,0.173906248393528,0.296036034937428,0.199516731770841,0.238602891153317,0.309781430016657,7,3,3
0,0,0,0,0.025,0.025,0.05,0,0,0.025,0,0,0,0.05,0,0.459199205791998,0.490048214024171,0.551017853965101,0.439563731971748,0.764134736204165,0.482721373052809,0.472333052748922,0.355451274280245,0.612936513134917,0.499902279649666,0.51692401141467,0.484270475802498,0.267491171048356,0.270139097850017,0.222718579160251,0.367516837854866,0.264858845129195,0.268677656552405,0.261500774825953,0.165292782385463,0.280298610469304,0.192348524886092,0.229162321920278,0.301905772469791,7,3,7
0,0,0,0,0.025,0.025,0.05,0,0,0.025,0,0,0,0.05,0,0.460962157443254,0.48071364281725,0.554970961096308,0.43812973922108,0.769310779101745,0.477355120773964,0.475441570959339,0.365063230609417,0.582406288554836,0.495154694539417,0.50263709176092,0.468908965078498,0.330945270037357,0.33824853370227,0.264410310327901,0.450208854474891,0.322484153705595,0.333968422457893,0.312416345338755,0.224475980071159,0.354138527953241,0.265854486014091,0.309102625516229,0.359776408930127,7,7,3
0,0,0,0,0.025,0.025,0.05,0,0,0.025,0,0,0,0.05,0,0.463907185728584,0.488467658085256,0.560389208842102,0.4395965419275,0.819439617309745,0.481499367804153,0.476835396232252,0.341459747347335,0.635759041594332,0.504132583893499,0.522729978800754,0.492936523024167,0.258842765490569,0.263947169897539,0.217476800012153,0.359502568236603,0.266356906774763,0.266918441781161,0.25183139631225,0.163481449848629,0.279258321871093,0.177950171510952,0.227007857300629,0.300533198167489,7,7,7
0,0,0,0,0,0,0,0.275,0,0,0,0.275,0,0,0,0.498702073595922,0.501447182294669,0.504941034442365,0.502300596599002,0.489049199945833,0.50033429763524,0.49571107904867,0.500268249666669,0.485653575186331,0.499700413614755,0.507305529730337,0.494513364997579,0.588587524944839,0.494811238088729,0.538001514557653,0.529204519172127,0.488465488420689,0.601258486180695,0.468390517476129,0.565444638427315,0.582036753590594,0.578986061425895,0.582573282345201,0.58615868668903,0,0,10
0,0,0,0,0,0,0,0.275,0,0,0,0.275,0,0,0,0.49704602679617,0.491866539055502,0.498886430040736,0.499398935703584,0.497776401171666,0.500210173871059,0.496679843319168,0.498565058366921,0.495978178601831,0.49761037966,0.49653300593875,0.497559665076165,0.774547230625487,0.733723285589387,0.835836528049593,0.753888494045187,0.71790522484936,0.76272511714008,0.724070905835453,0.747355134539307,0.748520093383707,0.74735511198284,0.741371802563567,0.739000535114033,0,0,3
0,0,0,0,0,0,0,0.275,0,0,0,0.275,0,0,0,0.48461339126834,0.490479208641341,0.495039542532933,0.491353737776916,0.477608741469999,0.494220403429051,0.487149532767415,0.490083453145928,0.473275649550669,0.492866780289165,0.493731515479089,0.4862900578275,0.485027957157785,0.475409133569115,0.52667902558245,0.475374730918014,0.460969863553373,0.480920387749796,0.48705212435735,0.455906851155748,0.469494298827354,0.469822252311435,0.454836525636625,0.481061652632793,0,0,7
0,0,0,0,0,0,0,0.275,0,0,0,0.275,0,0,0,0.492516999895173,0.484956613008592,0.495516260000201,0.494887604838749,0.496535373295171,0.497844818100526,0.495815020021917,0.494036398048837,0.497232721321501,0.494873636472414,0.487139720394174,0.497699678853081,0.89729522481512,0.852313557239327,0.871330402418313,0.882118407811653,0.837566145622947,0.89625471020088,0.822992288959713,0.86801609791804,0.863911424068933,0.854849931952007,0.853208993933667,0.85661205752552,0,10,0
0,0,0,0,0,0,0,0.275,0,0,0,0.275,0,0,0,0.498584664096586,0.491361694241925,0.497054996434423,0.499568316726999,0.501810760657753,0.501021568053244,0.498980868389162,0.499004778893675,0.50306821474058,0.497600610152921,0.492814867012669,0.500761314671166,0.84941585666276,0.82236527845282,0.910343928330733,0.823924783845807,0.799309219527087,0.829773044310873,0.811202697745047,0.820289927245253,0.819477835060507,0.821042550903807,0.818044480877327,0.822044912755333,0,3,0
0,0,0,0,0,0,0,0.275,0,0,0,0.275,0,0,0,0.496097904755584,0.504980114840168,0.501188997716906,0.500072867435085,0.499984476881252,0.499640288818691,0.50047840855508,0.499381518025422,0.493840233737836,0.50073229539442,0.503288095617256,0.498053288775412,0.527844769539073,0.50127739074828,0.529007732264344,0.504598344764513,0.494491042589763,0.530278210543943,0.487476712251135,0.515560820652887,0.523799936985074,0.513599685902193,0.514957176648475,0.526260503493467,0,7,0
0,0,0,0,0,0,0,0.275,0,0,0,0.275,0,0,0,0.498816700365336,0.505137704814086,0.502973705543431,0.503585543805423,0.499456352262251,0.501073384695292,0.500921186586083,0.496487322091087,0.491560982356327,0.506675068419088,0.514731897594004,0.493921114598163,0.623862167513307,0.559291083985369,0.6821844949611,0.608191995545568,0.576889480773079,0.652704933712854,0.589402979307035,0.546234588177984,0.570623100923384,0.539403366175591,0.569253247340701,0.571338516474206,10,0,0
0,0,0,0,0,0,0,0.275,0,0,0,0.275,0,0,0,0.493878588201255,0.497699571827422,0.504261023549833,0.500668643410836,0.484346278373664,0.498964179376102,0.493670407109829,0.495426145917008,0.472535255261249,0.497981329824336,0.506085644139841,0.486235574480497,0.490058068814884,0.422331843041713,0.482727014198779,0.462450529501107,0.422238100422369,0.498462241179226,0.448795746709797,0.419701466427503,0.432411686447597,0.441736118163992,0.419893636846888,0.448165145965101,10,10,10
0,0,0,0,0,0,0,0.275,0,0,0,0.275,0,0,0,0.495330293480669,0.499877178156419,0.500150173947961,0.500467904560003,0.500417558270334,0.499752371354191,0.499452507199248,0.497135586922423,0.491908432701246,0.500141835890167,0.502959100777423,0.492936509706243,0.523301616226856,0.479326761771841,0.648021707110419,0.497159191886929,0.487517427296469,0.515155720886348,0.497587142890359,0.48657033070834,0.493557090484621,0.475779286051999,0.472307355123698,0.493584368448342,3,0,0
0,0,0,0,0,0,0,0.275,0,0,0,0.275,0,0,0,0.496738992029918,0.500014804963342,0.504851477143512,0.501408883127499,0.494809661785087,0.500395571733935,0.49742994843275,0.497596812613415,0.482902346117248,0.499569616561416,0.504925072403091,0.492632677689579,0.530940479537185,0.457967857424869,0.539886900934493,0.490552599876306,0.458481840406803,0.53349088845319,0.446673508996495,0.496072086290561,0.498240005985157,0.50660932289705,0.503849553128477,0.514017220908619,3,3,3
0,0,0,0,0,0,0,0.275,0,0,0,0.275,0,0,0,0.497215420901506,0.499491580906505,0.505234978438114,0.5028663449965,0.494254969349333,0.500691901281002,0.497652540556498,0.499758926815673,0.483910953621415,0.500794468858089,0.506246520061251,0.493639404615078,0.519231273109504,0.485082740999187,0.503395932726075,0.483437477836539,0.455937700223645,0.508624481250745,0.46360776561332,0.473926116468252,0.484150303363643,0.484070166989705,0.499442131518665,0.492055245947353,3,3,7
0,0,0,0,0,0,0,0.275,0,0,0,0.275,0,0,0,0.493294033984336,0.489592250161257,0.499191481398276,0.496404309053003,0.49327814011175,0.498335084653218,0.494834844015332,0.493451843524423,0.48988170491258,0.495916741931165,0.495175970749915,0.492151616728501,0.775057582869913,0.659508506724986,0.83494857950388,0.731768760352247,0.67775404255108,0.76716441834598,0.668955355483287,0.694644891637213,0.69717839827784,0.700025823458967,0.685701391791953,0.715502639630667,3,7,3
0,0,0,0,0,0,0,0.275,0,0,0,0.275,0,0,0,0.495803580861167,0.496757537346252,0.502787785145648,0.49986447232892,0.495968173764663,0.500035960067893,0.498123651446252,0.496617636687915,0.487989860643751,0.498952784729835,0.501120684751919,0.492838597035995,0.632531664537802,0.588805458708837,0.618540697397427,0.610311091096145,0.582261120598494,0.656115697795794,0.579126753121045,0.594936632084937,0.599642542895335,0.600251455646542,0.601862248521252,0.593135234227146,3,7,7
0,0,0,0,0,0,0,0.275,0,0,0,0.275,0,0,0,0.496032358987503,0.500559196325923,0.50042299450966,0.500919416492337,0.50117751346358,0.500224689109035,0.501270623487994,0.495481323800425,0.489389090674666,0.503551471689752,0.507572744278843,0.491518565571914,0.552750714204067,0.513133355462168,0.651549105633873,0.531641693973704,0.509970175112212,0.554096205058835,0.523563047708808,0.492355021214149,0.506572506815138,0.487411812149197,0.491355073000757,0.512728866243577,7,0,0
0,0,0,0,0,0,0,0.275,0,0,0,0.275,0,0,0,0.497739596017169,0.502902312086752,0.504884811945757,0.502472775320501,0.492078089775504,0.500463289127362,0.497651491185667,0.498875324267254,0.483227798331751,0.501565996936915,0.508612145830006,0.492124016136245,0.502744187340304,0.441606764734575,0.527727466655196,0.502466023465453,0.466619042684865,0.505522899900371,0.458911755229547,0.470970724122201,0.481802324056798,0.478725926656539,0.480531043196445,0.48758259839588,7,3,3
0,0,0,0,0,0,0,0.275,0,0,0,0.275,0,0,0,0.496334541996333,0.504370797707168,0.505085014209277,0.502136241317248,0.487190425912667,0.4996607019572,0.495947138643999,0.498151568585593,0.481373225442917,0.498443868099253,0.507854778703336,0.490714594203911,0.550885603138987,0.501484360442429,0.540227755572201,0.538423196508006,0.495692943767399,0.523183994797683,0.49430682601162,0.489795788071107,0.508216603305897,0.508040851359591,0.489069522222918,0.515611884328245,7,3,7
0,0,0,0,0,0,0,0.275,0,0,0,0.275,0,0,0,0.496767253361963,0.498183986738633,0.502585838672604,0.500039401774171,0.497381310040583,0.499397773160032,0.498982871286245,0.495185814365169,0.489513904689164,0.501481432581539,0.504924136825417,0.49270033034212,0.628637523034673,0.589347681316384,0.591056043036839,0.616575962830357,0.591253703815024,0.630446256306603,0.574811948365358,0.587837210170917,0.600147150241838,0.584331502907599,0.581500845605604,0.599878015846629,7,7,3
0,0,0,0,0,0,0,0.275,0,0,0,0.275,0,0,0,0.494869777025588,0.50206845145417,0.504392984395642,0.501604547924751,0.487754505033666,0.499799925287275,0.496609265333916,0.498138904715177,0.476789725304496,0.500651527027253,0.510107467951752,0.488758970177247,0.459693546845312,0.438986487918707,0.504484477439982,0.460907745940646,0.426695509144741,0.468672399379423,0.47217571757504,0.416444405711716,0.432519272158446,0.432713252564321,0.422263203308082,0.424758040643365,7,7,7
0,0,0,0,0.05,0.05,0.05,0,0,0.05,0,0,0,0.05,0.075,0.498245126884331,0.500411064384582,0.49949163417011,0.499389814451501,0.50381801484217,0.499902849040296,0.503533656309003,0.499368662194837,0.505801295274495,0.499633057843585,0.499638538884335,0.500470380046829,0.75531999461556,0.751974055030273,0.73841932719708,0.758220139760633,0.75867508425968,0.7736314847543,0.725071446842687,0.757919971597387,0.755391287922327,0.75049908701384,0.76453993476526,0.750560601114853,0,0,10
0,0,0,0,0.05,0.05,0.05,0,0,0.05,0,0,0,0.05,0.075,0.500793415858919,0.499756563944169,0.501289238262041,0.50159345102042,0.502628366714498,0.497864294953217,0.504024067808746,0.499669253157663,0.49942184306625,0.499281964698582,0.500390329725087,0.500494855281408,0.67060653417742,0.674381817133473,0.68997559517898,0.67418089362516,0.681250704066267,0.6969838410306,0.652762364243734,0.671683208334013,0.66828632262418,0.671572342007167,0.680678148577967,0.663458287862655,0,0,3
0,0,0,0,0.05,0.05,0.05,0,0,0.05,0,0,0,0.05,0.075,0.501534822596415,0.500466678531831,0.499771010910101,0.500442823105084,0.500044935199833,0.500696649574439,0.500296001060167,0.500655798748085,0.499200061365832,0.499728359945664,0.5,0.500200798127332,0.655038450814725,0.661213822305849,0.6574846643615,0.664328312977731,0.66632651679755,0.654197030393043,0.640668510807692,0.653587133291471,0.650117128011944,0.657250174105173,0.666666666666667,0.650689820222756,0,0,7
0,0,0,0,0.05,0.05,0.05,0,0,0.05,0,0,0,0.05,0.075,0.500606852161997,0.499041586513914,0.501059509299841,0.500925540084086,0.50040784471625,0.498288882263898,0.500373946055919,0.50061523887141,0.499602078852831,0.498726097734504,0.50000703896942,0.500189228862496,0.747045053616787,0.734429062642393,0.746774499311,0.745601864998993,0.741458568614947,0.765595225755707,0.712399931507887,0.72774007703648,0.72930139902346,0.735496707589473,0.748155073798493,0.725105894464107,0,10,0
0,0,0,0,0.05,0.05,0.05,0,0,0.05,0,0,0,0.05,0.075,0.500107512735582,0.498708410206666,0.501220592235185,0.500853928230754,0.499591937032915,0.497378214941901,0.500872073173082,0.499312725203998,0.498174405148666,0.497895097799835,0.499493362592671,0.500013309924577,0.701843098494467,0.688916848302407,0.71653495717534,0.702246920204327,0.69828123252,0.72280043993848,0.67254574990924,0.690212355471567,0.68781109954664,0.697829753744033,0.7000490616227,0.682559267708687,0,3,0
0,0,0,0,0.05,0.05,0.05,0,0,0.05,0,0,0,0.05,0.075,0.500961046897254,0.499640775064671,0.499291870414294,0.500441258719837,0.501952719514088,0.500040836993935,0.502037595651001,0.501056714127412,0.501396295630496,0.499806354110831,0.49989319445142,0.499870255343666,0.696063785077813,0.698276151469407,0.703311400888447,0.69653830317892,0.696651097957587,0.688375325051713,0.67407417744502,0.689841387972613,0.689121766174333,0.69270112065336,0.698372564046693,0.683340499094193,0,7,0
0,0,0,0,0.05,0.05,0.05,0,0,0.05,0,0,0,0.05,0.075,0.518248120977,0.510596775785251,0.619197886761967,0.423970754536669,0.760562351426335,0.531204911824108,0.549175904270089,0.348459869512584,0.567646032901581,0.553270476041001,0.534639278354666,0.486992870352663,0.222381398626995,0.223282284679439,0.168522663378245,0.263884181630708,0.226213183104683,0.224005587402419,0.207318307607577,0.181747875760811,0.244345806292181,0.201036940272423,0.247293975005283,0.233604906153558,10,0,0
0,0,0,0,0.05,0.05,0.05,0,0,0.05,0,0,0,0.05,0.075,0.526210569669416,0.509095396432917,0.626183675876393,0.42753132979459,0.768166699493752,0.533038476091008,0.554739162364331,0.340874768095665,0.588056523205916,0.557370898440501,0.537683402157086,0.48658208175583,0.216317760781851,0.198598488718211,0.150906578732394,0.242137391821292,0.21215301934362,0.212727132562999,0.172022948889656,0.181115856027682,0.241831754045917,0.200746190499737,0.230524322576249,0.221855205029319,10,10,10
0,0,0,0,0.05,0.05,0.05,0,0,0.05,0,0,0,0.05,0.075,0.493191679795916,0.484508808469832,0.528870523633699,0.439471385393506,0.495027123892839,0.493193804678526,0.496789196799085,0.47337459950092,0.454559986862245,0.483552285710243,0.504265466582922,0.480994014447498,0.301212378136603,0.278167063329537,0.203408728118255,0.199461130097605,0.175300379568083,0.234174841456081,0.205622526400529,0.178903817902253,0.225825232805021,0.199490426459771,0.231300526739209,0.206370563416303,3,0,0
0,0,0,0,0.05,0.05,0.05,0,0,0.05,0,0,0,0.05,0.075,0.495481351681002,0.486585007995831,0.532861928661458,0.440389374734923,0.49579399293217,0.496467572994644,0.496821601539835,0.473047655753584,0.45528583296292,0.484058768434829,0.502557119529337,0.482064705921994,0.289181496586067,0.272134363554909,0.189316008429565,0.191715754600539,0.164457085619286,0.221078808735515,0.185447700240249,0.173122619358761,0.220561376719361,0.191210404681194,0.226982842441596,0.203131993547025,3,3,3
0,0,0,0,0.05,0.05,0.05,0,0,0.05,0,0,0,0.05,0.075,0.493123424279497,0.485383197501329,0.534729291447616,0.44268997503242,0.494032264416001,0.494035126927821,0.498699082567089,0.474086463738416,0.45565272496591,0.482367187651744,0.502937840739094,0.482076883804746,0.287545697728861,0.272929789038485,0.179601435664856,0.184130406620569,0.159957695401319,0.220395438309104,0.184154804472033,0.171754763275218,0.217815278953126,0.188255634440931,0.225347360038243,0.202632485899121,3,3,7
0,0,0,0,0.05,0.05,0.05,0,0,0.05,0,0,0,0.05,0.075,0.495170600072169,0.487662900164167,0.542859848602666,0.433289799004922,0.507430799961924,0.498793050906312,0.498672544515915,0.471169009033082,0.455364012026576,0.484582810088415,0.5069838982215,0.483143690305326,0.280920298462775,0.268864161008465,0.175837054548157,0.191399837083947,0.155325352324195,0.217724962129957,0.174962503153599,0.165781715691446,0.216647770105447,0.180976528475099,0.224577481699207,0.202968920467336,3,7,3
0,0,0,0,0.05,0.05,0.05,0,0,0.05,0,0,0,0.05,0.075,0.493346730453249,0.487227661494586,0.538401111720824,0.437285874056255,0.494556202016253,0.49532190760745,0.490013530073918,0.473571379820083,0.451738102999997,0.482834277944994,0.507007202560669,0.483805438187665,0.286069968760269,0.271921425665914,0.177521181521118,0.188924525204175,0.157499292050746,0.220041973130049,0.182588761559853,0.169863372847805,0.219921119557499,0.187995873715487,0.226744424874834,0.20022034591095,3,7,7
0,0,0,0,0.05,0.05,0.05,0,0,0.05,0,0,0,0.05,0.075,0.504571086253168,0.497280789984251,0.599018578871784,0.421281288822087,0.711226231469919,0.520921498728416,0.517949275722924,0.399131423852918,0.498347739349003,0.525898323768911,0.526986051027165,0.484060957346242,0.22390392408242,0.222287775138773,0.147375764627206,0.233689007479359,0.176070536827811,0.203388056898469,0.174096417135722,0.150863989545299,0.210790382419211,0.172472276647826,0.212839211212079,0.20549154972702,7,0,0
0,0,0,0,0.05,0.05,0.05,0,0,0.05,0,0,0,0.05,0.075,0.511228742853837,0.497660660651331,0.608934368849802,0.420475173628921,0.72131216911942,0.524859996678839,0.525597582633248,0.394405679504581,0.498396351000332,0.529427521832417,0.527607896968175,0.484362739431663,0.221159184584289,0.229452631725307,0.149058239317801,0.242341309652286,0.184290726574977,0.198854751337799,0.176245040234601,0.15288244770288,0.21386277319096,0.174714131131357,0.213648781781155,0.207211211488888,7,3,3
0,0,0,0,0.05,0.05,0.05,0,0,0.05,0,0,0,0.05,0.075,0.508716495380833,0.500463731922082,0.608078998269184,0.419452455887756,0.720002042908754,0.525077352153431,0.514351037024005,0.396908212832994,0.498927004434165,0.529103433734411,0.52749150933459,0.483128220460327,0.223389647463488,0.220345318094275,0.153409048909774,0.237407329882129,0.179342327728649,0.199488891882903,0.172000722997866,0.15024982870638,0.209227648095268,0.171841990767231,0.210723295158946,0.206515988372006,7,3,7
0,0,0,0,0.05,0.05,0.05,0,0,0.05,0,0,0,0.05,0.075,0.509465681988337,0.500148937665244,0.611688623030403,0.423602642166009,0.731251662338667,0.525332903338827,0.529333303207585,0.38750082275983,0.504853657057663,0.537139146353917,0.532791534434836,0.486796419513496,0.217041772129117,0.217265629814327,0.147655327679642,0.232812166041861,0.179631553353914,0.199667943330933,0.171785994268667,0.154148957927973,0.214268274376127,0.175944762674295,0.211835071595155,0.205862033332227,7,7,3
0,0,0,0,0.05,0.05,0.05,0,0,0.05,0,0,0,0.05,0.075,0.510380161008584,0.501325297150998,0.614044224295228,0.42373722135884,0.722600351261087,0.528757682535382,0.527971977485754,0.391061864306249,0.497794224443749,0.53033604506117,0.527447467433592,0.487317706676578,0.212545979708713,0.217722436565328,0.143574709710493,0.225649747171199,0.170875810192129,0.189170519299002,0.166991712056833,0.146739935831995,0.207491824662375,0.16722043356925,0.206531422793596,0.206599726849236,7,7,7
0,0,0,0,0,0,0.1,0,0,0,0.125,0,0,0.1,0,0.503564045026172,0.515415183056496,0.50268831156726,0.500728971127671,0.523786789872997,0.501086714929443,0.523007238612581,0.503996107458914,0.511344749177579,0.501690192967919,0.503465591360839,0.503774957109749,0.840530998409167,0.872300713037747,0.81265293390236,0.805366415673207,0.849524887422273,0.78449561808966,0.820726563584707,0.79788040895894,0.792488123392893,0.78178921573036,0.86196350022648,0.832285363339013,0,0,10
0,0,0,0,0,0,0.1,0,0,0,0.125,0,0,0.1,0,0.50502407605008,0.522432518969742,0.5015866498566,0.500483877149838,0.52602507975775,0.504359220510074,0.520451520595174,0.508074224342914,0.520441346648164,0.502564182672756,0.504007388871838,0.506017204985665,0.979329488556913,0.942979920672487,1.04620193938116,0.979284475460067,0.98845229334682,0.911865606696313,0.993807282496207,0.8924949881374,0.924172971277393,0.884951310744633,0.99195734153334,0.952588893234213,0,0,3
0,0,0,0,0,0,0.1,0,0,0,0.125,0,0,0.1,0,0.505808429807746,0.519249213394414,0.504706143628675,0.501036129197831,0.527671387944747,0.503162136829744,0.528907734903583,0.507348771788998,0.515602431488503,0.504324336698414,0.505699880657585,0.50610581818317,0.767445758292453,0.84385137176172,0.763330896033307,0.766045738215367,0.8091683973439,0.718848493109727,0.769185912834693,0.729562123693467,0.748548185386513,0.716784038192067,0.812746133336133,0.775784983369713,0,0,7
0,0,0,0,0,0,0.1,0,0,0,0.125,0,0,0.1,0,0.503011625170245,0.513149203547084,0.503097728874752,0.501586177287084,0.519932694288747,0.50206090496514,0.518152514759669,0.504422127336329,0.515567302670581,0.501400213775503,0.50183760500592,0.503078258137003,1.05420959429679,0.926748255538293,1.03873816105283,1.02565934457275,0.99379673243374,0.95370050687412,0.968326824843927,0.91946228473262,0.939115757080853,0.909228315225427,1.0299181670449,0.964340112570087,0,10,0
0,0,0,0,0,0,0.1,0,0,0,0.125,0,0,0.1,0,0.505514141824915,0.509853206143998,0.498322905554915,0.498746591226251,0.51546083573175,0.501927712410335,0.507704386142501,0.505684555069161,0.508030460236415,0.500377319612335,0.503147491559173,0.503346781873751,0.809636413874147,0.786240519835913,0.825645050846413,0.796620055023827,0.805826038038773,0.730972304788653,0.73292610186288,0.740447006019933,0.744936293508007,0.7391056739464,0.795082339123687,0.78761785303362,0,3,0
0,0,0,0,0,0,0.1,0,0,0,0.125,0,0,0.1,0,0.503633938056004,0.519616185745576,0.502170305308718,0.500713802625415,0.52263853603767,0.504657004276032,0.516499654315254,0.505861677195253,0.516753054544836,0.502816003437755,0.501779388148333,0.504534323603673,0.9286649389597,0.933791491959747,0.956605896694473,0.922434187058313,0.943354135135033,0.8508718575937,0.962204355999853,0.85683592522052,0.870312816004427,0.849379384943227,0.947297326124427,0.898469686177313,0,7,0
0,0,0,0,0,0,0.1,0,0,0,0.125,0,0,0.1,0,0.38428819234216,0.584413344223162,0.669849988944907,0.454984049335252,0.761341062984075,0.493558263035376,0.517500060557836,0.449495254396163,0.514259112560751,0.503559271579672,0.625894809343174,0.505794324629585,0.329523355619225,0.324284003001329,0.268864008571902,0.246563351747809,0.196283512970421,0.233852104572119,0.223059949187813,0.177740439828993,0.272768042518109,0.150323813498295,0.238697394206539,0.246740249434783,10,0,0
0,0,0,0,0,0,0.1,0,0,0,0.125,0,0,0.1,0,0.38692537552617,0.612326342752414,0.678819890017925,0.416993219956504,0.800751482972255,0.50264613227271,0.575478746882004,0.425395271537332,0.540350171541502,0.522895250158842,0.629665537170587,0.504222267393254,0.252716826148649,0.260385552165558,0.234672458771523,0.211133298880331,0.205715786392084,0.220918764824754,0.191426892220295,0.153682054710271,0.238091818245605,0.137356156298358,0.232918524491695,0.214142931727429,10,10,10
0,0,0,0,0,0,0.1,0,0,0,0.125,0,0,0.1,0,0.435308453201168,0.529235765067329,0.623442826840551,0.512473250733922,0.570562125469746,0.486127032877565,0.487044783679084,0.487630215268996,0.499987637934163,0.486242636485588,0.558995285330081,0.498032564417167,0.440943322893805,0.437590034176611,0.288658544261643,0.333152857817319,0.229070613103415,0.229605429293037,0.316649626035694,0.277123942116544,0.311025536253059,0.24162309080149,0.290041263300308,0.283063747369219,3,0,0
0,0,0,0,0,0,0.1,0,0,0,0.125,0,0,0.1,0,0.411963216462078,0.520335200255579,0.63933194427857,0.512575845196415,0.539126074311577,0.485157276039675,0.476114220591495,0.482728582635497,0.500829872889256,0.485380254530673,0.559824033708173,0.494862351308086,0.469640200783212,0.446727744972339,0.203133373548974,0.365018482108114,0.228251213941319,0.25151069023725,0.264797938977865,0.300449560947878,0.336030761975081,0.263423075331833,0.31233529281241,0.30777530678905,3,3,3
0,0,0,0,0,0,0.1,0,0,0,0.125,0,0,0.1,0,0.417823092391922,0.512523818980162,0.63996870576409,0.515506741175585,0.526335979500578,0.485865647195749,0.475151091832754,0.479432931786835,0.495534462548585,0.484147742045002,0.550354998886422,0.492408508226924,0.447327260338976,0.417346949222912,0.213701457042291,0.346128878506085,0.210692131562045,0.222315684990183,0.253617080150019,0.286827713670929,0.312330445782431,0.255922330329941,0.288463527316649,0.286082855604551,3,3,7
0,0,0,0,0,0,0.1,0,0,0,0.125,0,0,0.1,0,0.405043916921415,0.503675550778161,0.591411127796391,0.518674284755582,0.490494854709078,0.481425278574628,0.456983657003502,0.479542762840663,0.486691370241414,0.477418424347673,0.547377590880586,0.494275992180923,0.524324782062366,0.470204398579886,0.386188967479926,0.39621547713642,0.223693113143118,0.256557303754465,0.307007472844629,0.313325612809085,0.347611548254238,0.282197003083738,0.319866798300151,0.343619412241349,3,7,3
0,0,0,0,0,0,0.1,0,0,0,0.125,0,0,0.1,0,0.432708259137331,0.502198671983831,0.607931361077269,0.518684556448835,0.50507240727008,0.4848842246103,0.473613481522005,0.480933911353577,0.492950792957248,0.483953209575753,0.535730124430586,0.490303546108589,0.642585724746683,0.530832562504793,0.253397373997563,0.487053929962571,0.33384191411266,0.372851967643163,0.381992001388516,0.400750854105577,0.399222396949022,0.380042128413203,0.396508812978679,0.394315153450364,3,7,7
0,0,0,0,0,0,0.1,0,0,0,0.125,0,0,0.1,0,0.381127412589751,0.559913714486078,0.667126335246849,0.477007853128504,0.736441188086081,0.492736988834258,0.507101642278832,0.467725075608746,0.525186952870666,0.494844918983006,0.616064162436669,0.502251790170754,0.496114581034047,0.462082931891926,0.336739948832319,0.366941475217617,0.251818555413007,0.301882759877363,0.283496091793227,0.246313888784803,0.352651651168262,0.202850614079427,0.319081267801713,0.33058367067634,7,0,0
0,0,0,0,0,0,0.1,0,0,0,0.125,0,0,0.1,0,0.386729642774827,0.55791480284916,0.668893026223523,0.483203597478502,0.717385483286665,0.494045951606532,0.51639533352033,0.46935793488608,0.525413229336249,0.495603152918505,0.612956950824252,0.503106969833169,0.484224905315133,0.439463680548547,0.299906893034615,0.342599117755797,0.221311549129439,0.260779675888333,0.250682120020291,0.256124641389092,0.339030534968287,0.210881644532465,0.300550731173179,0.314655489283746,7,3,3
0,0,0,0,0,0,0.1,0,0,0,0.125,0,0,0.1,0,0.383134484982082,0.566105715446662,0.670239529230392,0.482654788566418,0.737155758798753,0.49411139945579,0.522569295804419,0.464628341848248,0.515310417733417,0.498548323030502,0.615699393146752,0.501215323318343,0.308190498447943,0.309688492083225,0.202566171708493,0.224929963422291,0.171996015784498,0.200339942364744,0.183047884831221,0.187620542857642,0.25504153692701,0.148406584313168,0.227129372665001,0.232777237685808,7,3,7
0,0,0,0,0,0,0.1,0,0,0,0.125,0,0,0.1,0,0.400289696790668,0.563583703126579,0.6771597774328,0.429489887232666,0.53285183513533,0.500961442906507,0.558241151939251,0.45070613027637,0.536122397562832,0.392765430338506,0.646881364801919,0.509326741145543,0.252033650506485,0.234848864861563,0.203995726081694,0.197574267316231,0.16541956362065,0.193098254426388,0.160582913405358,0.209706392750085,0.315979247409022,0.119221869532061,0.194618546833231,0.285939205064446,7,7,3
0,0,0,0,0,0,0.1,0,0,0,0.125,0,0,0.1,0,0.383679042860666,0.554363189122915,0.673727232899356,0.471898894684256,0.742900609552413,0.496279474347082,0.516225217891332,0.451087692875831,0.508197891584251,0.493663392395001,0.611974316410504,0.496220103728422,0.367165004953459,0.327080563465979,0.234031234731164,0.264106798683871,0.191432246834614,0.235867115667687,0.220305548323735,0.20181919409848,0.269640461774041,0.176425883124035,0.246513241024747,0.240801276875545,7,7,7
