,importance
ACA,0.001729185296294717
ATA,0.011105687757349698
ATT,0.0007181136953407552
CAC,0.0011696178839197039
CCC,0.0019168157085654109
CCT,0.002831841787644969
CTT,0.002880045979222115
GTG,0.0012600283049400535
TAT,0.01095315865813707
TCC,0.0034866213714441225
TCT,0.0002710052171769951
TGT,0.0011849061980587269
TTA,0.002107994459067376
TTC,0.0030765767990312727
TTT,0.0018200250893728954
"10,2_dwl",0.03300341385925659
"10,3_dwl",0.02843057408390159
"6,5_dwl",0.0453744217176651
"7,5_dwl",0.03431529400119815
"7,6_dwl",0.033796527148146356
"8,3_dwl",0.019582865012121968
"8,4_dwl",0.02409239065922015
"8,6_dwl",0.13690557871820366
"8,7_dwl",0.021951896712590624
"9,4_dwl",0.04219087974771943
"9,5_dwl",0.028178143937700927
"9,7_dwl",0.02723957147315502
"10,2_dint",0.0217089823371411
"10,3_dint",0.034518833694845985
"6,5_dint",0.04931379944102459
"7,5_dint",0.0424266202715002
"7,6_dint",0.024120068067164588
"8,3_dint",0.01932922735218429
"8,4_dint",0.024728459708846056
"8,6_dint",0.032705410421864374
"8,7_dint",0.07489052993297535
"9,4_dint",0.02703705985492746
"9,5_dint",0.05125232758221551
"9,7_dint",0.07639550005886482
