,criterion,f1_criterion,max_depth,f1_max_depth,max_features,f1_max_features,min_samples_leaf,f1_min_samples_leaf,min_samples_split,f1_min_samples_split,n_estimators,f1_n_estimators
0,0,0.9722143805500314,42,0.9722143805500314,8,0.9722143805500314,2.8907869566353713e-05,0.9722143805500314,0.001834973262759294,0.9722143805500314,18,0.9722143805500314
1,1,0.9715270862392664,21,0.9715270862392664,13,0.9715270862392664,0.0002072068393160295,0.9715270862392664,0.0003022338147416839,0.9715270862392664,75,0.9715270862392664
2,0,0.9692026283412545,15,0.9692026283412545,11,0.9692026283412545,0.0007754055437970877,0.9692026283412545,0.00026603128827766234,0.9692026283412545,43,0.9692026283412545
3,1,0.9707521713421577,42,0.9707521713421577,7,0.9707521713421577,0.00030107391605442785,0.9707521713421577,0.0005669095926037203,0.9707521713421577,24,0.9707521713421577
4,1,0.9434959871705562,8,0.9434959871705562,16,0.9434959871705562,0.05195859618937318,0.9434959871705562,0.00036749729458312005,0.9434959871705562,8,0.9434959871705562
5,1,0.9758507829767563,15,0.9758507829767563,16,0.9758507829767563,0.00011457129457323577,0.9758507829767563,0.007947435749942422,0.9758507829767563,99,0.9758507829767563
6,1,0.9681631861771727,47,0.9681631861771727,5,0.9681631861771727,0.000113036370521143,0.9681631861771727,0.0001062507766692112,0.9681631861771727,34,0.9681631861771727
7,1,0.9738785579455769,34,0.9738785579455769,12,0.9738785579455769,0.0001174069282544947,0.9738785579455769,0.012228950217921062,0.9738785579455769,69,0.9738785579455769
8,0,0.9634858327902684,32,0.9634858327902684,16,0.9634858327902684,0.0006307210921043355,0.9634858327902684,0.00016767777096752046,0.9634858327902684,80,0.9634858327902684
9,1,0.9747605459288579,31,0.9747605459288579,15,0.9747605459288579,0.00027191304184559295,0.9747605459288579,0.0012525583243883855,0.9747605459288579,81,0.9747605459288579
