,criterion,f1_criterion,max_depth,f1_max_depth,max_features,f1_max_features,min_samples_leaf,f1_min_samples_leaf,min_samples_split,f1_min_samples_split,n_estimators,f1_n_estimators
0,1,0.9695527992237405,27,0.9695527992237405,5,0.9695527992237405,0.00011991480601287536,0.9695527992237405,0.005195546890321811,0.9695527992237405,3,0.9695527992237405
1,0,0.9756857329729967,28,0.9756857329729967,10,0.9756857329729967,0.0029755309025315973,0.9756857329729967,0.00010099839237016438,0.9756857329729967,95,0.9756857329729967
2,0,0.9717838385711023,4,0.9717838385711023,14,0.9717838385711023,0.002167571144387097,0.9717838385711023,0.0003388633789886361,0.9717838385711023,66,0.9717838385711023
3,0,0.9468052515113585,14,0.9468052515113585,7,0.9468052515113585,0.08133077210793611,0.9468052515113585,0.0016009644991234356,0.9468052515113585,56,0.9468052515113585
4,0,0.9518070036638908,21,0.9518070036638908,3,0.9518070036638908,0.06008900732873699,0.9518070036638908,0.004633256427806262,0.9518070036638908,33,0.9518070036638908
5,1,0.9423329356146699,30,0.9423329356146699,12,0.9423329356146699,0.07838265087100908,0.9423329356146699,0.00042582842695327184,0.9423329356146699,71,0.9423329356146699
6,0,0.9729588446486641,38,0.9729588446486641,8,0.9729588446486641,0.0002999686526351354,0.9729588446486641,0.00019094649678342234,0.9729588446486641,0,0.9729588446486641
7,1,0.9760174651595677,31,0.9760174651595677,13,0.9760174651595677,0.0003893605152818501,0.9760174651595677,0.0019434707170815743,0.9760174651595677,83,0.9760174651595677
8,1,0.9698992232339576,8,0.9698992232339576,1,0.9698992232339576,0.006944345204020169,0.9698992232339576,0.010367869096980302,0.9698992232339576,61,0.9698992232339576
9,1,0.9713042423011835,16,0.9713042423011835,16,0.9713042423011835,0.005449281164518482,0.9713042423011835,0.00018850376179099378,0.9713042423011835,84,0.9713042423011835
